<svg width="141" height="73" viewBox="0 0 141 73" fill="none" xmlns="http://www.w3.org/2000/svg">
<g clip-path="url(#clip0_425_19409)">
<path d="M7.01844 25.0578V42.038L12.4069 41.6612C12.9958 41.6211 13.5526 41.4747 14.0792 41.2223C14.6058 40.9697 15.062 40.637 15.4499 40.2242C15.8378 39.8111 16.1393 39.3442 16.3564 38.8192C16.5734 38.2959 16.682 37.7409 16.682 37.1535V28.5953C16.682 28.0101 16.5734 27.469 16.3564 26.9759C16.1393 26.4809 15.8378 26.056 15.4499 25.6972C15.062 25.3384 14.6058 25.0698 14.0792 24.8895C13.5526 24.7111 12.9958 24.6409 12.4069 24.683L7.01844 25.0578ZM12.4069 18.3916C13.7696 18.2954 15.0941 18.4738 16.3805 18.9228C17.6647 19.3737 18.7964 20.0432 19.7711 20.931C20.7479 21.8189 21.5278 22.8752 22.1166 24.0978C22.7057 25.3224 22.9989 26.6733 22.9989 28.1544V36.7127C22.9989 38.1016 22.7136 39.4484 22.1408 40.7532C21.566 42.058 20.8002 43.2286 19.8414 44.2668C18.8807 45.305 17.7573 46.1548 16.4729 46.8142C15.1866 47.4756 13.8319 47.8543 12.4069 47.9545L3.90514 48.5479C3.06903 48.6059 2.33341 48.3554 1.69829 47.7983C1.06317 47.2411 0.745605 46.5154 0.745605 45.6215V22.3501C0.745605 21.5483 1.04709 20.8028 1.65206 20.1133C2.25502 19.4218 3.00672 19.047 3.90514 18.9849" fill="#3C4257" style="fill:#3C4257;fill:color(display-p3 0.2353 0.2588 0.3412);fill-opacity:1;"/>
<path d="M28.9001 24.5508C29.7061 24.4947 30.3794 24.7412 30.922 25.2884C31.4626 25.8376 31.7642 26.525 31.8264 27.3548V43.7316C31.8264 44.5654 31.5631 45.2769 31.0386 45.8682C30.51 46.4615 29.7985 46.8183 28.9001 46.9426C28.0941 46.9986 27.4127 46.8002 26.856 46.3452C26.2973 45.8922 25.9576 45.2208 25.833 44.335V27.5873C25.8952 26.7816 26.2209 26.0961 26.8098 25.5289C27.3967 24.9637 28.0941 24.637 28.9001 24.5508ZM28.9001 17.4718C29.7061 17.4156 30.3954 17.6682 30.9682 18.2294C31.541 18.7906 31.8264 19.474 31.8264 20.2757C31.8264 21.0774 31.541 21.799 30.9682 22.4403C30.3954 23.0817 29.7061 23.4305 28.9001 23.4866C28.0016 23.5186 27.2661 23.2841 26.6933 22.7851C26.1205 22.286 25.833 21.5424 25.833 20.5543C25.8651 19.7506 26.1827 19.0491 26.7856 18.4519C27.3907 17.8546 28.0941 17.5279 28.9001 17.4718Z" fill="#3C4257" style="fill:#3C4257;fill:color(display-p3 0.2353 0.2588 0.3412);fill-opacity:1;"/>
<path d="M45.7646 39.6148C46.4762 39.5647 47.1516 39.3863 47.7866 39.0796C48.4197 38.7729 48.9705 38.3722 49.4347 37.8771C49.8991 37.382 50.2708 36.8089 50.5502 36.1575C50.8295 35.506 50.9683 34.8105 50.9683 34.069C50.9683 33.3916 50.8295 32.7441 50.5502 32.1329C50.2708 31.5196 49.891 30.9904 49.4127 30.5455C48.9303 30.1005 48.3735 29.7618 47.7385 29.5293C47.1054 29.2948 46.446 29.2026 45.7646 29.2507C45.0834 29.2988 44.4322 29.4812 43.813 29.8019C43.194 30.1246 42.6434 30.5395 42.1651 31.0506C41.6827 31.5637 41.3048 32.1449 41.0255 32.7963C40.748 33.4477 40.6074 34.1131 40.6074 34.7905C40.6074 35.5021 40.754 36.1614 41.0496 36.7728C41.3429 37.3841 41.7289 37.9052 42.2113 38.3341C42.6896 38.765 43.2402 39.0956 43.8594 39.3303C44.4784 39.5647 45.1136 39.6589 45.7646 39.6148ZM47.1114 23.1878C48.5062 23.2459 49.8147 23.5546 51.0386 24.1178C52.2607 24.679 53.3138 25.4306 54.1982 26.3706C55.0805 27.3126 55.7779 28.4049 56.2885 29.6496C56.799 30.8942 57.0542 32.2271 57.0542 33.6442V41.8336C57.0542 42.6653 56.7447 43.3989 56.1257 44.0262C55.5067 44.6556 54.8091 44.9962 54.0354 45.0524C52.95 45.1266 52.0837 44.6935 51.4325 43.7516C51.2777 43.8258 51.1392 43.9038 51.0146 43.9901C50.8898 44.0743 50.7673 44.1545 50.6427 44.2227C49.8991 44.6155 49.1412 44.9301 48.3675 45.1686C47.5596 45.4111 46.7093 45.5614 45.811 45.6256C43.4875 45.7859 41.4134 45.3069 39.5843 44.1845C37.7573 43.0641 36.3947 41.5469 35.4961 39.6368C35.1867 38.9473 34.9475 38.2399 34.7767 37.5103C34.6059 36.7828 34.5215 36.0192 34.5215 35.2154C34.5215 34.4138 34.6059 33.638 34.7767 32.8845C34.9475 32.1329 35.1867 31.3913 35.4961 30.6597C36.3947 28.5933 37.7573 26.8777 39.5843 25.5168C41.4134 24.1559 43.4875 23.3943 45.811 23.2319C46.0581 23.2159 46.2832 23.1999 46.4843 23.1858C46.6852 23.1718 46.8963 23.1718 47.1114 23.1878Z" fill="#3C4257" style="fill:#3C4257;fill:color(display-p3 0.2353 0.2588 0.3412);fill-opacity:1;"/>
<path d="M62.9091 15.0084C63.7453 14.9503 64.4487 15.1928 65.0215 15.74C65.5963 16.2851 65.9119 16.9886 65.9741 17.8485V36.1213C65.9741 36.7387 66.1751 37.2499 66.5792 37.6527C66.981 38.0575 67.4916 38.2378 68.1127 38.1938C68.9166 38.1376 69.6222 38.3661 70.227 38.8793C70.83 39.3923 71.1476 40.0637 71.1777 40.8956C71.1777 41.6352 70.9225 42.3085 70.4119 42.9157C69.9015 43.5211 69.2422 43.9139 68.4383 44.0923L67.787 44.1385C66.7017 44.2146 65.6807 44.0622 64.7199 43.6815C63.7592 43.3026 62.9151 42.7676 62.1876 42.0781C61.46 41.3867 60.8872 40.5648 60.4691 39.6048C60.0511 38.6487 59.842 37.6305 59.842 36.5503V18.091C59.9365 17.3133 60.2601 16.6259 60.8169 16.0326C61.3756 15.4393 62.0709 15.0966 62.9091 15.0084Z" fill="#3C4257" style="fill:#3C4257;fill:color(display-p3 0.2353 0.2588 0.3412);fill-opacity:1;"/>
<path d="M83.2109 26.6392C82.4975 26.6893 81.8321 26.8656 81.2131 27.1723C80.5941 27.4769 80.0434 27.8778 79.565 28.3729C79.0826 28.8699 78.7048 29.4431 78.4254 30.0945C78.146 30.7479 78.0073 31.4434 78.0073 32.183C78.0073 32.8925 78.146 33.5539 78.4254 34.1672C78.7048 34.7805 79.0826 35.3076 79.565 35.7526C80.0434 36.1976 80.5941 36.5382 81.2131 36.7707C81.8321 37.0052 82.4975 37.0975 83.2109 37.0493C83.9225 36.9992 84.5957 36.8127 85.2329 36.4922C85.866 36.1695 86.4167 35.7545 86.881 35.2434C87.3473 34.7323 87.7171 34.1511 87.9965 33.4997C88.2758 32.8484 88.4145 32.1669 88.4145 31.4574C88.3523 30.0444 87.8417 28.8759 86.881 27.956C85.9224 27.036 84.6983 26.5971 83.2109 26.6392ZM83.2109 20.5783C84.7284 20.472 86.1695 20.6644 87.5322 21.1555C88.895 21.6465 90.0868 22.3661 91.1098 23.3121C92.1308 24.2581 92.9449 25.3885 93.5498 26.7053C94.1527 28.0201 94.4543 29.4632 94.4543 31.0365C94.4543 32.5798 94.1608 34.0409 93.572 35.4239C92.9831 36.8068 92.1851 38.0415 91.1781 39.1298C90.1732 40.2181 88.9874 41.1019 87.6248 41.7833C86.262 42.4649 84.7908 42.8597 83.2109 42.9699C81.6613 43.0782 80.2062 42.9019 78.8435 42.4428C77.4809 41.9818 76.2889 41.2863 75.2659 40.3544C74.2449 39.4243 73.4389 38.3 72.8501 36.9852C72.2612 35.6684 71.9678 34.2093 71.9678 32.6039C71.9678 31.0626 72.2531 29.5995 72.8259 28.2185C73.4007 26.8376 74.1906 25.611 75.1975 24.5367C76.2025 23.4644 77.3964 22.5805 78.7731 21.881C80.1519 21.1856 81.6312 20.7506 83.2109 20.5783Z" fill="#3C4257" style="fill:#3C4257;fill:color(display-p3 0.2353 0.2588 0.3412);fill-opacity:1;"/>
<path d="M107.834 24.9215C107.153 24.9696 106.504 25.162 105.885 25.4967C105.264 25.8334 104.715 26.2583 104.234 26.7694C103.754 27.2805 103.366 27.8557 103.073 28.4931C102.779 29.1304 102.633 29.7878 102.633 30.4653C102.633 31.1447 102.763 31.7921 103.027 32.4054C103.29 33.0188 103.654 33.5478 104.118 33.9947C104.584 34.4398 105.133 34.7865 105.768 35.037C106.403 35.2855 107.093 35.3838 107.834 35.3316C108.578 35.2795 109.275 35.0911 109.926 34.7684C110.576 34.4457 111.134 34.0209 111.599 33.4958C112.063 32.9706 112.427 32.3894 112.69 31.754C112.953 31.1187 113.086 30.4472 113.086 29.7377C113.086 29.0282 112.937 28.3668 112.644 27.7555C112.348 27.1442 111.962 26.6231 111.482 26.1942C111.002 25.7653 110.443 25.4346 109.81 25.2001C109.175 24.9676 108.516 24.8734 107.834 24.9215ZM109.322 49.6161L107.834 49.7203C107.06 49.8345 106.379 50.2073 105.79 50.8346C105.171 51.4621 104.436 51.8067 103.583 51.8668C102.731 51.9269 101.996 51.6684 101.376 51.0953C100.79 50.582 100.472 49.9328 100.426 49.1491C100.378 48.3654 100.619 47.6618 101.145 47.0405C102.074 45.802 103.437 44.8599 105.233 44.2105C106.039 43.9078 106.906 43.7075 107.834 43.6133L111.273 43.3728C111.737 43.2786 112.109 43.0521 112.389 42.6933C113.07 41.6291 113.301 40.6711 113.086 39.8232V39.7772C112.465 40.16 111.762 40.4865 110.972 40.7572C110.182 41.0277 109.137 41.2082 107.834 41.3003C106.194 41.4145 104.683 41.2423 103.306 40.7832C101.927 40.3243 100.743 39.6348 99.7505 38.7168C98.7596 37.7988 97.9858 36.6724 97.4291 35.3396C96.8704 34.0069 96.5908 32.5216 96.5908 30.8882C96.5908 29.377 96.9005 27.9219 97.5214 26.5189C98.1406 25.1199 98.9686 23.8753 100.006 22.7849C101.045 21.6946 102.237 20.8007 103.583 20.1052C104.932 19.4097 106.349 19.0109 107.834 18.9067C109.384 18.7984 110.839 18.9909 112.202 19.4819C113.564 19.9729 114.758 20.6925 115.779 21.6385C116.802 22.5845 117.6 23.7169 118.173 25.0337C118.746 26.3505 119.033 27.7796 119.033 29.3228C119.033 31.4213 118.583 33.3014 117.685 34.9688C118.583 36.1093 119.033 38.0373 119.033 40.7512C119.063 41.643 118.868 42.6352 118.452 43.7275C118.032 44.8218 117.476 45.7638 116.78 46.5516C116.081 47.3412 115.253 47.9926 114.294 48.5056C113.333 49.0208 112.294 49.3475 111.181 49.4878L109.601 49.598" fill="#3C4257" style="fill:#3C4257;fill:color(display-p3 0.2353 0.2588 0.3412);fill-opacity:1;"/>
<path d="M136.827 16.7922C137.662 16.7341 138.358 17.0026 138.917 17.5959C139.473 18.1892 139.753 18.8405 139.753 19.5501C139.753 20.3518 139.451 21.0753 138.846 21.7187C138.243 22.362 137.568 22.7088 136.827 22.7609L128.835 23.3181C128.463 23.3441 128.146 23.4744 127.883 23.7089C127.619 23.9434 127.488 24.2621 127.488 24.6609C127.488 25.0939 127.619 25.4165 127.883 25.629C128.146 25.8414 128.463 25.9336 128.835 25.9096L134.085 25.5428C135.044 25.4767 135.936 25.615 136.756 25.9577C137.576 26.3024 138.29 26.7855 138.893 27.4048C139.498 28.0281 139.968 28.6955 140.31 29.4131C140.651 30.1286 140.822 30.9483 140.822 31.8743C140.852 32.8904 140.673 33.8585 140.288 34.7805C139.9 35.7025 139.381 36.4941 138.732 37.1555C138.081 37.819 137.321 38.3561 136.455 38.7709C135.586 39.1878 134.612 39.4324 133.526 39.5085L124.978 40.1038C124.172 40.1599 123.477 39.9314 122.888 39.4163C122.299 38.9032 122.004 38.2297 122.004 37.3961C122.004 36.6265 122.283 35.9048 122.842 35.2334C123.398 34.562 124.08 34.1833 124.886 34.097L133.434 33.4997C134.27 33.4416 134.69 33.0428 134.69 32.3032C134.69 31.4694 134.27 31.0826 133.434 31.1407L128.325 31.4975C127.394 31.5616 126.52 31.4293 125.698 31.1006C124.878 30.7739 124.166 30.2909 123.561 29.6536C122.958 29.0182 122.486 28.3107 122.144 27.533C121.803 26.7554 121.634 25.9036 121.634 24.9776C121.634 24.0516 121.811 23.1457 122.168 22.2558C122.524 21.3679 123.01 20.5782 123.632 19.8868C124.251 19.1973 124.978 18.6301 125.814 18.1851C126.65 17.7422 127.565 17.4696 128.556 17.3694" fill="#3C4257" style="fill:#3C4257;fill:color(display-p3 0.2353 0.2588 0.3412);fill-opacity:1;"/>
<path d="M98.1926 46.71C73.1455 48.4837 43.6585 50.5501 43.6585 50.5501L31.0545 60.1345C30.8275 60.2707 30.3753 60.5874 30.0134 60.4512C29.8768 60.405 29.7401 60.2707 29.6958 60.0904V51.454C26.1585 51.6806 6.88977 52.855 5.62153 53.0374C4.07996 53.2177 2.90014 53.6687 1.94948 54.4825C-0.500572 56.5629 -0.181 60.0904 0.452112 60.8581C0.588784 60.9943 0.635012 60.9483 0.723446 60.9041C2.03992 59.7737 4.57839 59.0503 8.25046 58.7335C8.70268 58.6875 24.6632 57.6932 24.6632 57.6932V69.4022C24.6632 69.8091 24.844 70.1718 25.2059 70.3061C25.5233 70.4886 25.9313 70.4425 26.2047 70.1718L44.973 56.2462C44.973 56.2462 73.847 54.244 98.9584 52.4882C98.2229 51.6023 97.7948 50.5241 97.7243 49.3235C97.6681 48.4076 97.8309 47.5237 98.1926 46.71Z" fill="#3C4257" style="fill:#3C4257;fill:color(display-p3 0.2353 0.2588 0.3412);fill-opacity:1;"/>
<path d="M140.547 42.082C140.412 41.9458 140.366 41.9918 140.276 42.0359C138.961 43.1664 136.423 43.8898 132.751 44.2065C132.636 44.2366 127.975 44.5813 120.84 45.0945C120.325 46.3251 119.658 47.4275 118.834 48.3593C117.926 49.3856 116.836 50.2454 115.596 50.9108C115.259 51.0911 114.913 51.2495 114.559 51.3959C126.43 50.5621 135.1 49.9447 135.379 49.9027C136.921 49.7223 138.099 49.2692 139.052 48.4557C141.5 46.3771 141.182 42.8497 140.547 42.082Z" fill="#3C4257" style="fill:#3C4257;fill:color(display-p3 0.2353 0.2588 0.3412);fill-opacity:1;"/>
<path d="M49.2499 65.9168C48.872 65.943 48.5524 66.0993 48.2912 66.3859C48.032 66.6705 47.9012 67.0593 47.9012 67.5484C47.9012 68.0235 48.032 68.3841 48.2912 68.6286C48.5524 68.8752 48.872 68.9834 49.2499 68.9574C49.6418 68.9312 49.9614 68.7609 50.2066 68.4502C50.4517 68.1396 50.5744 67.7728 50.5744 67.3519C50.5744 66.9211 50.4517 66.5684 50.2066 66.2917C49.9614 66.0151 49.6418 65.8889 49.2499 65.9168ZM47.9676 61.6558V65.6905C48.3152 65.2134 48.7876 64.9549 49.3845 64.9127C50.0336 64.8686 50.5844 65.057 51.0346 65.482C51.4828 65.9068 51.708 66.4961 51.708 67.2498C51.708 67.9431 51.499 68.5525 51.0788 69.0777C50.6607 69.6047 50.098 69.8933 49.3967 69.9415C48.8138 69.9835 48.3374 69.8011 47.9676 69.3963V69.8953L46.8582 69.9716V61.734" fill="#3C4257" style="fill:#3C4257;fill:color(display-p3 0.2353 0.2588 0.3412);fill-opacity:1;"/>
<path d="M52.3994 72.1742L54.1582 68.7169L52.1162 64.8467L53.4547 64.7544L54.8134 67.4402L56.1982 64.5621L57.4442 64.4758L53.6476 72.0881" fill="#3C4257" style="fill:#3C4257;fill:color(display-p3 0.2353 0.2588 0.3412);fill-opacity:1;"/>
<path d="M64.8447 61.1785V62.2629L62.2157 62.4473V64.3574L64.7543 64.1809V65.2652L62.2157 65.4436V68.9009L61.0601 68.9812V61.4432" fill="#3C4257" style="fill:#3C4257;fill:color(display-p3 0.2353 0.2588 0.3412);fill-opacity:1;"/>
<path d="M65.9563 60.401L67.0658 60.323V68.5625L65.9563 68.6407V60.401Z" fill="#3C4257" style="fill:#3C4257;fill:color(display-p3 0.2353 0.2588 0.3412);fill-opacity:1;"/>
<path d="M69.7409 67.1174C69.998 67.374 70.3417 67.4861 70.772 67.4561C71.2039 67.426 71.5476 67.2657 71.8049 66.9731C72.0602 66.6785 72.1888 66.3036 72.1888 65.8447C72.1888 65.3377 72.0501 64.9688 71.7748 64.7303C71.4995 64.4939 71.1659 64.3896 70.772 64.4157C70.38 64.4438 70.0463 64.596 69.7689 64.8707C69.4936 65.1452 69.357 65.5361 69.357 66.0411C69.357 66.5021 69.4836 66.8589 69.7409 67.1174ZM68.9529 64.2554C69.4414 63.7502 70.0483 63.4717 70.772 63.4216C71.4974 63.3715 72.1044 63.5639 72.5908 64.0009C73.0792 64.4378 73.3225 65.0229 73.3225 65.7525C73.3225 66.4761 73.0792 67.0954 72.5908 67.6065C72.1044 68.1196 71.4974 68.4001 70.772 68.4523C70.0483 68.5024 69.4414 68.3059 68.9529 67.861C68.4666 67.416 68.2214 66.8329 68.2214 66.1093C68.2214 65.3778 68.4666 64.7605 68.9529 64.2554Z" fill="#3C4257" style="fill:#3C4257;fill:color(display-p3 0.2353 0.2588 0.3412);fill-opacity:1;"/>
<path d="M74.478 68.0472V63.287L75.5895 63.209V63.6519C75.899 63.2531 76.2909 63.0366 76.7672 63.0046C77.3199 62.9643 77.732 63.1709 78.0034 63.6178C78.3289 63.1288 78.8013 62.8622 79.4203 62.8181C80.0394 62.7761 80.4936 62.9925 80.7809 63.4695C80.9459 63.7521 81.0301 64.1449 81.0301 64.65V67.5883L79.9187 67.6664V65.0448C79.9187 64.63 79.8845 64.3493 79.8163 64.205C79.7118 63.9324 79.5006 63.8082 79.1832 63.8303C78.9098 63.8482 78.6908 63.9806 78.5238 64.2272C78.3813 64.4396 78.3088 64.8063 78.3088 65.3255V67.7787L77.1993 67.8569V65.2353C77.1993 64.8203 77.1651 64.5398 77.0969 64.3934C76.9903 64.1229 76.7793 63.9966 76.4617 64.0187C76.1905 64.0387 75.9714 64.1709 75.8045 64.4156C75.6619 64.63 75.5895 64.9968 75.5895 65.5158V67.969" fill="#3C4257" style="fill:#3C4257;fill:color(display-p3 0.2353 0.2588 0.3412);fill-opacity:1;"/>
<path d="M82.425 67.4923V62.734L83.5345 62.6559V63.0969C83.8761 62.696 84.3063 62.4775 84.8268 62.4415C85.4539 62.3974 85.9222 62.5797 86.2317 62.9886C86.4287 63.2532 86.5273 63.6882 86.5273 64.2894V67.2056L85.4157 67.2838V64.6381C85.4157 64.3515 85.3936 64.121 85.3494 63.9427C85.3032 63.7643 85.2308 63.644 85.1344 63.5799C85.0358 63.5136 84.9454 63.4757 84.867 63.4616C84.7866 63.4497 84.6802 63.4456 84.5434 63.4556C84.3846 63.4676 84.258 63.4897 84.1636 63.5217C84.0691 63.5558 83.9665 63.6219 83.8581 63.7242C83.7475 63.8263 83.6671 63.9947 83.6149 64.2272C83.5606 64.4617 83.5345 64.7624 83.5345 65.1311V67.414" fill="#3C4257" style="fill:#3C4257;fill:color(display-p3 0.2353 0.2588 0.3412);fill-opacity:1;"/>
<path d="M87.9322 62.3491L89.0437 62.273V67.0311L87.9322 67.1074V62.3491ZM87.9786 60.888C87.8418 60.7619 87.7734 60.5975 87.7734 60.3931C87.7734 60.1906 87.8418 60.0163 87.9786 59.872C88.1152 59.7256 88.284 59.6454 88.4871 59.6314C88.6921 59.6173 88.8609 59.6736 88.9975 59.7998C89.1343 59.926 89.2025 60.0905 89.2025 60.2949C89.2025 60.4972 89.1343 60.6717 88.9975 60.8179C88.8609 60.9622 88.6921 61.0424 88.4871 61.0564C88.284 61.0705 88.1152 61.0144 87.9786 60.888Z" fill="#3C4257" style="fill:#3C4257;fill:color(display-p3 0.2353 0.2588 0.3412);fill-opacity:1;"/>
</g>
<defs>
<clipPath id="clip0_425_19409">
<rect width="141" height="73" fill="white" style="fill:white;fill-opacity:1;"/>
</clipPath>
</defs>
</svg>
