<?xml version="1.0" encoding="utf-8"?>
<svg viewBox="-27 -18 333 333" width="250pt" height="250pt" xmlns="http://www.w3.org/2000/svg">
  <defs>
    <clipPath id="clip_path_0">
      <path d="M 150 153 L 300 153 L 300 303 L 150 303 L 150 153 Z M 0 3"/>
    </clipPath>
    <clipPath id="clip_path_1">
      <path d="M 151 2 L 301 2 L 301 152 L 151 152 L 151 2 Z M 1 2"/>
    </clipPath>
    <clipPath id="clip_path_2">
      <path d="M 15 -20 L 165 -20 L 165 130 L 15 130 L 15 -20 Z M 15 -20"/>
    </clipPath>
    <clipPath id="clip_path_3">
      <path d="M0,150H150V300H0V150Z M 0,0"/>
    </clipPath>
  </defs>
  <g id="g_0" transform="matrix(1, 0, 0, 1, 0, 12)">
    <path fill="#EB5757" d="M 172.722 295.916 L 182.349 302.102 L 182.627 315.726 C 182.662 317.151 184.191 318.019 185.442 317.324 L 192.497 313.362 L 200.873 324.31 C 201.915 325.665 203.966 325.491 204.765 323.997 L 221.725 292.267 C 222.594 290.703 221.342 288.861 219.605 289 L 173.452 293.032 C 171.957 293.171 171.471 295.117 172.722 295.916 Z M 173.544 294.027 C 173.544 294.027 173.543 294.027 173.542 294.027 C 172.962 294.083 172.842 294.806 173.26 295.073 L 173.263 295.075 L 183.338 301.549 L 183.627 315.701 C 183.627 315.702 183.627 315.702 183.627 315.703 C 183.644 316.367 184.354 316.783 184.955 316.451 C 184.955 316.451 184.956 316.45 184.956 316.45 L 192.764 312.066 L 201.665 323.7 C 201.665 323.7 201.665 323.7 201.665 323.7 C 202.266 324.48 203.427 324.378 203.883 323.525 L 220.847 291.788 L 220.851 291.781 C 221.316 290.944 220.66 289.921 219.688 289.997 C 219.687 289.997 219.686 289.997 219.684 289.997 L 173.544 294.027 Z" stroke-opacity="0.9" fill-rule="evenodd" fill-opacity="0.9" clip-path="url(#clip_path_0)"/>
    <path fill="#EB5757" d="M 188.232 305.926 C 188.336 305.682 188.51 305.474 188.753 305.37 L 212.977 293.97 C 213.568 293.692 213.255 292.823 212.629 293.032 L 185.799 300.469 C 185.313 300.574 185 301.025 185 301.512 L 185.174 312.216 C 185.174 312.425 185.452 312.494 185.556 312.286 L 188.232 305.926 Z M 186.112 308.386 L 187.313 305.532 C 187.488 305.124 187.813 304.691 188.34 304.459 L 207.246 295.562 L 186.066 301.433 C 186.051 301.437 186.035 301.441 186.019 301.445 C 186.015 301.45 186.011 301.458 186.007 301.47 C 186.003 301.482 186 301.495 186 301.508 L 186.112 308.386 Z" stroke-opacity="0.9" fill-rule="evenodd" fill-opacity="0.9"/>
    <path fill="#EB5757" d="M249.004,199.063L247.771,190.238L243.582,198.103C243.175,198.867 242.321,199.283 241.468,199.132L232.694,197.578L238.879,203.992C239.48,204.616 239.612,205.556 239.204,206.32L235.015,214.184L243.027,210.285C243.806,209.905 244.74,210.071 245.342,210.695L251.526,217.109L250.293,208.284C250.173,207.426 250.619,206.588 251.399,206.209L259.41,202.309L250.636,200.755C249.783,200.604 249.124,199.921 249.004,199.063ZM248.761,190.1C248.627,189.141 247.344,188.913 246.888,189.768L242.699,197.632C242.496,198.015 242.069,198.222 241.642,198.147L232.869,196.593C231.915,196.424 231.302,197.574 231.974,198.272L238.159,204.686C238.46,204.998 238.525,205.468 238.322,205.85L234.133,213.714C233.677,214.569 234.582,215.508 235.453,215.084L243.464,211.184C243.854,210.994 244.321,211.077 244.622,211.389L250.807,217.803C251.479,218.5 252.651,217.93 252.517,216.97L251.284,208.146C251.224,207.717 251.447,207.298 251.836,207.108L259.848,203.208C260.719,202.784 260.538,201.494 259.584,201.325L250.811,199.771C250.384,199.695 250.055,199.354 249.995,198.924L248.761,190.1Z" stroke-opacity="0.9" fill-rule="evenodd" fill-opacity="0.9"/>
    <path fill="#EB5757" d="M213.611,223.2L203.2,233.61L217.421,237.421L213.611,223.2ZM213.093,225.132L205.132,233.093L216.007,236.007L213.093,225.132Z" stroke-opacity="0.9" fill-rule="evenodd" fill-opacity="0.9"/>
    <path fill="#EB5757" d="M190.5,197C192.985,197 195,194.985 195,192.5C195,190.015 192.985,188 190.5,188C188.015,188 186,190.015 186,192.5C186,194.985 188.015,197 190.5,197ZM190.5,198C193.538,198 196,195.538 196,192.5C196,189.462 193.538,187 190.5,187C187.462,187 185,189.462 185,192.5C185,195.538 187.462,198 190.5,198Z" stroke-opacity="0.9" fill-rule="evenodd" fill-opacity="0.9"/>
    <path fill="#EB5757" d="M387.065,186.504C388.74,186.724 390.354,186.958 391.908,187.206L391.75,188.193C390.206,187.947 388.602,187.714 386.935,187.496L387.065,186.504ZM401.238,189.03C404.737,189.862 407.819,190.792 410.506,191.814L410.151,192.749C407.512,191.745 404.472,190.827 401.007,190.003L401.238,189.03ZM419.034,196.248C422.168,198.55 424.083,201.154 424.868,204.02L423.904,204.284C423.192,201.686 421.441,199.257 418.442,197.054L419.034,196.248ZM423.773,213.64C422.62,216.272 420.833,219 418.509,221.797L417.74,221.158C420.024,218.408 421.752,215.76 422.857,213.239L423.773,213.64ZM411.85,228.721C409.635,230.766 407.183,232.841 404.524,234.937L403.905,234.151C406.547,232.069 408.978,230.011 411.171,227.986L411.85,228.721ZM396.854,240.643C394.326,242.428 391.67,244.223 388.901,246.021L388.356,245.183C391.115,243.39 393.761,241.603 396.277,239.826L396.854,240.643ZM380.803,251.104C378.124,252.732 375.367,254.359 372.543,255.981L372.045,255.114C374.862,253.496 377.612,251.873 380.284,250.249L380.803,251.104ZM364.202,260.657C361.435,262.172 358.62,263.68 355.767,265.176L355.302,264.29C358.15,262.797 360.96,261.292 363.722,259.78L364.202,260.657ZM347.251,269.555C344.416,270.986 341.554,272.403 338.676,273.804L338.238,272.904C341.112,271.506 343.97,270.091 346.801,268.662L347.251,269.555ZM330.044,277.933C328.6,278.611 327.155,279.285 325.71,279.954C324.104,280.696 322.525,281.463 320.97,282.252L320.518,281.36C322.083,280.566 323.674,279.794 325.29,279.046C326.734,278.378 328.177,277.705 329.618,277.028L330.044,277.933ZM311.79,287.331C308.752,289.155 305.816,291.065 302.974,293.05L302.402,292.23C305.262,290.233 308.217,288.31 311.275,286.473L311.79,287.331ZM294.569,299.337C291.809,301.543 289.141,303.816 286.557,306.144L285.888,305.401C288.485,303.061 291.168,300.775 293.945,298.556L294.569,299.337ZM278.945,313.385C276.449,315.885 274.035,318.429 271.692,321.002L270.952,320.329C273.305,317.746 275.73,315.191 278.237,312.679L278.945,313.385ZM179.231,327.023C179.836,325.393 180.44,323.821 181.035,322.316L181.965,322.684C181.372,324.182 180.771,325.748 180.168,327.371L179.231,327.023ZM264.764,328.919C262.483,331.624 260.269,334.345 258.112,337.066L257.328,336.445C259.491,333.717 261.711,330.988 264,328.274L264.764,328.919ZM172.918,346.252C173.859,342.953 174.861,339.709 175.89,336.576L176.84,336.888C175.814,340.009 174.817,343.241 173.879,346.527L172.918,346.252ZM251.659,345.395C249.507,348.229 247.407,351.045 245.345,353.825L244.542,353.229C246.605,350.448 248.708,347.629 250.863,344.791L251.659,345.395ZM168.292,365.958C168.87,362.689 169.568,359.366 170.355,356.042L171.328,356.272C170.545,359.58 169.851,362.885 169.277,366.132L168.292,365.958ZM239.078,362.285C236.937,365.168 234.826,367.987 232.733,370.718L231.939,370.11C234.028,367.384 236.135,364.57 238.275,361.689L239.078,362.285ZM166.571,386.148C166.448,382.968 166.578,379.555 166.911,375.995L167.906,376.088C167.576,379.614 167.449,382.983 167.571,386.109L166.571,386.148ZM226.181,379.001C223.876,381.805 221.57,384.473 219.246,386.973L218.514,386.292C220.821,383.81 223.113,381.158 225.409,378.365L226.181,379.001ZM211.698,394.379C208.947,396.803 206.14,398.96 203.247,400.801L202.71,399.957C205.553,398.149 208.318,396.024 211.037,393.629L211.698,394.379ZM173.668,404.831C171.049,402.826 169.26,399.857 168.129,396.231L169.083,395.933C170.173,399.427 171.868,402.193 174.276,404.037L173.668,404.831ZM193.731,405.521C192.058,406.12 190.351,406.612 188.606,406.989C186.769,407.385 185.062,407.601 183.479,407.646L183.45,406.646C184.964,406.603 186.609,406.397 188.395,406.011C190.096,405.644 191.761,405.165 193.394,404.58L193.731,405.521Z" stroke-opacity="0.9" fill-rule="evenodd" fill-opacity="0.9"/>
    <path fill="#EB5757" d="M270.125,171.169C270.308,170.962 270.624,170.942 270.831,171.125C272.041,172.192 273.208,173.263 274.332,174.338C274.532,174.529 274.539,174.845 274.348,175.045C274.157,175.244 273.841,175.252 273.641,175.061C272.527,173.995 271.37,172.933 270.169,171.875C269.962,171.692 269.942,171.377 270.125,171.169ZM280.201,181.166C280.41,180.985 280.726,181.007 280.907,181.215C283.072,183.709 285.018,186.216 286.75,188.731C286.907,188.958 286.849,189.269 286.622,189.426C286.395,189.583 286.083,189.525 285.927,189.298C284.217,186.815 282.294,184.338 280.152,181.871C279.971,181.663 279.993,181.347 280.201,181.166ZM290.948,196.675C291.195,196.551 291.496,196.649 291.62,196.896C293.109,199.84 294.315,202.785 295.247,205.721C295.33,205.984 295.184,206.265 294.921,206.349C294.658,206.432 294.377,206.286 294.293,206.023C293.379,203.141 292.194,200.245 290.728,197.347C290.603,197.101 290.702,196.8 290.948,196.675ZM296.738,214.603C297.012,214.569 297.262,214.764 297.295,215.038C297.69,218.249 297.76,221.434 297.517,224.579C297.496,224.854 297.256,225.06 296.98,225.039C296.705,225.017 296.499,224.777 296.52,224.502C296.758,221.423 296.689,218.305 296.303,215.16C296.269,214.886 296.464,214.636 296.738,214.603ZM295.493,233.356C295.758,233.431 295.913,233.707 295.838,233.973C294.983,236.999 293.834,239.969 292.402,242.871C292.28,243.119 291.98,243.22 291.732,243.098C291.485,242.976 291.383,242.676 291.505,242.429C292.911,239.579 294.038,236.666 294.876,233.701C294.951,233.435 295.227,233.281 295.493,233.356ZM287.381,250.346C287.606,250.506 287.659,250.818 287.499,251.043C285.703,253.567 283.682,256.022 281.445,258.398C281.256,258.6 280.94,258.609 280.739,258.42C280.537,258.231 280.528,257.914 280.717,257.713C282.925,255.368 284.916,252.948 286.684,250.464C286.844,250.239 287.156,250.186 287.381,250.346ZM193.119,254.676C193.299,254.466 193.614,254.44 193.824,254.619C195.04,255.656 196.405,256.745 197.9,257.86C198.122,258.025 198.167,258.338 198.002,258.56C197.837,258.781 197.524,258.827 197.303,258.662C195.791,257.535 194.409,256.432 193.176,255.381C192.966,255.201 192.94,254.886 193.119,254.676ZM205.919,263.822C206.059,263.584 206.366,263.506 206.604,263.647C209.478,265.351 212.583,267.003 215.854,268.506C216.105,268.621 216.215,268.918 216.099,269.169C215.984,269.42 215.687,269.53 215.436,269.414C212.131,267.896 208.996,266.228 206.094,264.507C205.856,264.366 205.778,264.059 205.919,263.822ZM274.585,264.222C274.763,264.433 274.736,264.748 274.525,264.926C273.326,265.935 272.085,266.926 270.802,267.899C269.353,268.996 267.875,269.975 266.373,270.843C266.134,270.981 265.828,270.899 265.69,270.66C265.552,270.421 265.634,270.115 265.873,269.977C267.338,269.13 268.782,268.174 270.198,267.101C271.468,266.139 272.696,265.159 273.881,264.161C274.092,263.983 274.408,264.01 274.585,264.222ZM224.95,272.624C225.034,272.361 225.316,272.216 225.579,272.301C228.881,273.357 232.274,274.201 235.706,274.754C235.978,274.798 236.164,275.055 236.12,275.328C236.076,275.6 235.819,275.786 235.547,275.742C232.059,275.18 228.618,274.323 225.274,273.253C225.011,273.169 224.866,272.887 224.95,272.624ZM256.939,274.308C257.012,274.574 256.855,274.849 256.588,274.922C253.136,275.864 249.624,276.35 246.106,276.46C245.83,276.469 245.599,276.252 245.59,275.976C245.582,275.7 245.798,275.469 246.074,275.461C249.521,275.352 252.955,274.877 256.325,273.957C256.592,273.884 256.867,274.041 256.939,274.308Z" stroke-opacity="0.9" fill-rule="evenodd" fill-opacity="0.9"/>
  </g>
  <g id="g_1" transform="matrix(1, 0, 0, 1, -1, -20)">
    <path fill="#EB5757" d="M 173.722 -5.084 L 183.349 1.102 L 183.627 14.726 C 183.662 16.151 185.191 17.019 186.442 16.324 L 193.497 12.362 L 201.873 23.31 C 202.915 24.665 204.966 24.491 205.765 22.997 L 222.725 -8.733 C 223.594 -10.297 222.342 -12.139 220.605 -12 L 174.452 -7.968 C 172.957 -7.829 172.471 -5.883 173.722 -5.084 Z M 174.544 -6.973 C 174.544 -6.973 174.543 -6.973 174.542 -6.973 C 173.962 -6.917 173.842 -6.194 174.26 -5.927 L 174.263 -5.925 L 184.338 0.549 L 184.627 14.701 C 184.627 14.702 184.627 14.702 184.627 14.703 C 184.644 15.367 185.354 15.783 185.955 15.451 C 185.955 15.451 185.956 15.45 185.956 15.45 L 193.764 11.066 L 202.665 22.7 C 202.665 22.7 202.665 22.7 202.665 22.7 C 203.266 23.48 204.427 23.378 204.883 22.525 L 221.847 -9.212 L 221.851 -9.219 C 222.316 -10.056 221.66 -11.079 220.688 -11.003 C 220.687 -11.003 220.686 -11.003 220.684 -11.003 L 174.544 -6.973 Z" stroke-opacity="0.9" fill-rule="evenodd" fill-opacity="0.9" clip-path="url(#clip_path_1)"/>
    <path fill="#EB5757" d="M 189.232 5.926 C 189.336 5.682 189.51 5.474 189.753 5.37 L 213.977 -6.03 C 214.568 -6.308 214.255 -7.177 213.629 -6.968 L 186.799 0.469 C 186.313 0.574 186 1.025 186 1.512 L 186.174 12.216 C 186.174 12.425 186.452 12.494 186.556 12.285 L 189.232 5.926 Z M 187.112 8.386 L 188.313 5.532 C 188.488 5.124 188.813 4.691 189.34 4.459 L 208.246 -4.438 L 187.066 1.433 C 187.051 1.437 187.035 1.441 187.019 1.445 C 187.015 1.45 187.011 1.458 187.007 1.47 C 187.003 1.482 187 1.495 187 1.508 L 187.112 8.386 Z" stroke-opacity="0.9" fill-rule="evenodd" fill-opacity="0.9"/>
    <path fill="#EB5757" d="M239.263,105.12L236.677,103.881L238.04,106.404C238.452,107.166 238.327,108.107 237.729,108.734L235.751,110.811L238.572,110.293C239.424,110.137 240.28,110.547 240.692,111.309L242.056,113.832L242.435,110.99C242.55,110.131 243.205,109.444 244.057,109.287L246.877,108.77L244.291,107.531C243.51,107.156 243.059,106.321 243.173,105.462L243.553,102.62L241.575,104.696C240.978,105.324 240.044,105.495 239.263,105.12ZM237.109,102.979C236.235,102.561 235.336,103.504 235.797,104.357L237.161,106.879C237.367,107.26 237.304,107.731 237.005,108.044L235.027,110.121C234.359,110.822 234.979,111.969 235.932,111.794L238.752,111.277C239.178,111.199 239.606,111.404 239.812,111.785L241.176,114.308C241.636,115.16 242.918,114.925 243.047,113.965L243.426,111.122C243.484,110.693 243.811,110.349 244.237,110.271L247.058,109.754C248.011,109.579 248.183,108.287 247.31,107.868L244.724,106.629C244.333,106.442 244.107,106.024 244.165,105.595L244.544,102.752C244.673,101.792 243.497,101.229 242.829,101.93L240.851,104.007C240.552,104.32 240.086,104.406 239.695,104.219L237.109,102.979Z" stroke-opacity="0.9" fill-rule="evenodd" fill-opacity="0.9"/>
    <path fill="#EB5757" d="M289,107C297.837,107 305,99.837 305,91C305,82.163 297.837,75 289,75C280.163,75 273,82.163 273,91C273,99.837 280.163,107 289,107ZM289,108C298.389,108 306,100.389 306,91C306,81.611 298.389,74 289,74C279.611,74 272,81.611 272,91C272,100.389 279.611,108 289,108Z" stroke-opacity="0.9" fill-rule="evenodd" fill-opacity="0.9"/>
    <path fill="#EB5757" d="M287.911,87.184V90.345L291.134,90.116C291.55,90.095 291.883,90.199 292.153,90.47C292.424,90.74 292.548,91.073 292.548,91.468C292.548,91.863 292.403,92.216 292.153,92.508C291.883,92.799 291.55,92.965 291.134,92.986L287.911,93.215V96.459C287.911,96.874 287.766,97.228 287.495,97.519C287.225,97.81 286.872,97.977 286.456,97.997C286.04,98.018 285.707,97.914 285.416,97.665C285.146,97.415 285,97.082 285,96.667V85.957C285,85.583 285.146,85.25 285.416,84.938C285.686,84.626 286.04,84.439 286.456,84.419L292.548,84.003C292.944,83.982 293.276,84.086 293.567,84.356C293.838,84.626 293.983,84.959 293.983,85.354C293.983,85.77 293.838,86.124 293.567,86.415C293.297,86.706 292.944,86.872 292.548,86.893L287.911,87.184Z" stroke-opacity="0.9" fill-opacity="0.9"/>
    <path fill="#EB5757" d="M386.504,-113.065C386.54,-113.339 386.791,-113.532 387.065,-113.496C388.74,-113.276 390.354,-113.043 391.908,-112.794C392.18,-112.751 392.366,-112.495 392.323,-112.222C392.279,-111.949 392.023,-111.763 391.75,-111.807C390.206,-112.053 388.602,-112.286 386.935,-112.504C386.661,-112.54 386.468,-112.791 386.504,-113.065ZM400.636,-110.599C400.7,-110.868 400.969,-111.034 401.238,-110.97C404.737,-110.138 407.819,-109.208 410.506,-108.186C410.764,-108.088 410.894,-107.799 410.796,-107.541C410.698,-107.283 410.409,-107.153 410.151,-107.252C407.512,-108.255 404.472,-109.173 401.007,-109.997C400.738,-110.061 400.572,-110.33 400.636,-110.599ZM418.335,-103.645C418.499,-103.868 418.812,-103.916 419.034,-103.752C422.168,-101.45 424.083,-98.846 424.868,-95.98C424.941,-95.714 424.784,-95.439 424.518,-95.366C424.252,-95.293 423.977,-95.45 423.904,-95.716C423.192,-98.314 421.441,-100.743 418.442,-102.946C418.22,-103.11 418.172,-103.423 418.335,-103.645ZM423.515,-87.018C423.768,-86.908 423.883,-86.613 423.773,-86.36C422.62,-83.728 420.833,-81.001 418.509,-78.203C418.333,-77.991 418.017,-77.962 417.805,-78.138C417.593,-78.315 417.563,-78.63 417.74,-78.842C420.024,-81.592 421.752,-84.24 422.857,-86.761C422.967,-87.014 423.262,-87.129 423.515,-87.018ZM411.878,-71.985C412.065,-71.783 412.053,-71.466 411.85,-71.279C409.635,-69.234 407.183,-67.159 404.524,-65.063C404.307,-64.892 403.992,-64.93 403.821,-65.146C403.65,-65.363 403.688,-65.678 403.905,-65.849C406.547,-67.931 408.978,-69.989 411.171,-72.014C411.374,-72.201 411.691,-72.188 411.878,-71.985ZM396.974,-60.054C397.134,-59.829 397.08,-59.517 396.854,-59.357C394.326,-57.572 391.67,-55.778 388.901,-53.979C388.669,-53.828 388.36,-53.894 388.209,-54.126C388.059,-54.357 388.125,-54.667 388.356,-54.818C391.115,-56.61 393.761,-58.397 396.277,-60.174C396.503,-60.334 396.815,-60.28 396.974,-60.054ZM380.971,-49.583C381.114,-49.347 381.039,-49.04 380.803,-48.896C378.124,-47.268 375.367,-45.641 372.543,-44.019C372.304,-43.881 371.998,-43.964 371.86,-44.203C371.723,-44.443 371.805,-44.748 372.045,-44.886C374.862,-46.504 377.612,-48.127 380.284,-49.751C380.52,-49.894 380.827,-49.819 380.971,-49.583ZM364.4,-40.021C364.533,-39.779 364.444,-39.475 364.202,-39.343C361.435,-37.828 358.62,-36.32 355.767,-34.824C355.522,-34.696 355.22,-34.79 355.092,-35.035C354.964,-35.279 355.058,-35.582 355.302,-35.71C358.15,-37.203 360.96,-38.708 363.722,-40.22C363.964,-40.353 364.268,-40.264 364.4,-40.021ZM347.473,-31.117C347.597,-30.87 347.498,-30.569 347.251,-30.445C344.416,-29.014 341.554,-27.597 338.676,-26.197C338.427,-26.076 338.128,-26.179 338.007,-26.427C337.886,-26.676 337.99,-26.975 338.238,-27.096C341.112,-28.494 343.97,-29.909 346.801,-31.338C347.047,-31.462 347.348,-31.363 347.473,-31.117ZM330.283,-22.733C330.401,-22.483 330.294,-22.185 330.044,-22.068C328.6,-21.389 327.155,-20.715 325.71,-20.046C324.104,-19.304 322.525,-18.537 320.97,-17.749C320.724,-17.624 320.423,-17.722 320.298,-17.968C320.173,-18.214 320.272,-18.515 320.518,-18.64C322.083,-19.434 323.674,-20.206 325.29,-20.954C326.734,-21.622 328.177,-22.295 329.618,-22.972C329.868,-23.09 330.166,-22.983 330.283,-22.733ZM311.961,-13.355C312.103,-13.119 312.026,-12.811 311.79,-12.669C308.752,-10.845 305.816,-8.935 302.974,-6.95C302.748,-6.792 302.436,-6.848 302.278,-7.074C302.12,-7.3 302.175,-7.612 302.402,-7.77C305.262,-9.768 308.217,-11.69 311.275,-13.527C311.512,-13.669 311.819,-13.592 311.961,-13.355ZM294.648,-1.366C294.82,-1.15 294.785,-0.836 294.569,-0.663C291.809,1.543 289.141,3.816 286.557,6.144C286.352,6.329 286.036,6.312 285.851,6.107C285.666,5.902 285.683,5.586 285.888,5.401C288.485,3.061 291.168,0.775 293.945,-1.444C294.161,-1.617 294.476,-1.582 294.648,-1.366ZM278.944,12.678C279.14,12.873 279.14,13.19 278.945,13.385C276.449,15.885 274.035,18.429 271.692,21.002C271.506,21.206 271.19,21.221 270.985,21.035C270.781,20.849 270.766,20.533 270.952,20.329C273.305,17.746 275.73,15.191 278.237,12.679C278.432,12.483 278.749,12.483 278.944,12.678ZM181.684,22.035C181.941,22.137 182.067,22.427 181.965,22.684C181.372,24.182 180.771,25.748 180.168,27.371C180.072,27.63 179.784,27.762 179.525,27.665C179.266,27.569 179.135,27.281 179.231,27.023C179.836,25.393 180.44,23.821 181.035,22.316C181.137,22.059 181.428,21.933 181.684,22.035ZM264.704,28.214C264.915,28.392 264.942,28.707 264.764,28.918C262.483,31.624 260.269,34.345 258.112,37.066C257.94,37.282 257.626,37.319 257.409,37.147C257.193,36.975 257.157,36.661 257.328,36.444C259.491,33.717 261.711,30.988 264,28.274C264.178,28.063 264.493,28.036 264.704,28.214ZM176.521,36.257C176.783,36.343 176.926,36.626 176.84,36.888C175.814,40.009 174.817,43.241 173.879,46.527C173.803,46.792 173.527,46.946 173.261,46.87C172.996,46.795 172.842,46.518 172.918,46.252C173.859,42.953 174.861,39.708 175.89,36.576C175.976,36.314 176.258,36.171 176.521,36.257ZM251.563,44.694C251.783,44.861 251.826,45.175 251.659,45.395C249.507,48.229 247.407,51.045 245.345,53.825C245.18,54.046 244.867,54.093 244.645,53.928C244.424,53.764 244.377,53.45 244.542,53.229C246.605,50.448 248.708,47.629 250.863,44.79C251.03,44.57 251.343,44.528 251.563,44.694ZM170.957,55.67C171.226,55.734 171.392,56.003 171.328,56.272C170.545,59.58 169.851,62.885 169.277,66.132C169.229,66.403 168.97,66.585 168.698,66.537C168.426,66.489 168.244,66.229 168.292,65.957C168.87,62.689 169.568,59.366 170.355,56.042C170.419,55.773 170.688,55.607 170.957,55.67ZM238.975,61.586C239.196,61.75 239.243,62.063 239.078,62.285C236.937,65.168 234.826,67.987 232.733,70.718C232.565,70.937 232.251,70.979 232.032,70.811C231.812,70.643 231.771,70.329 231.939,70.11C234.028,67.384 236.135,64.57 238.275,61.689C238.44,61.467 238.753,61.421 238.975,61.586ZM167.455,75.543C167.73,75.569 167.932,75.813 167.906,76.088C167.576,79.614 167.449,82.982 167.571,86.109C167.581,86.385 167.366,86.617 167.09,86.628C166.814,86.639 166.582,86.424 166.571,86.148C166.448,82.968 166.578,79.555 166.911,75.994C166.937,75.72 167.18,75.518 167.455,75.543ZM226.113,78.297C226.326,78.472 226.357,78.787 226.181,79C223.876,81.805 221.57,84.473 219.246,86.973C219.058,87.175 218.742,87.187 218.54,86.999C218.337,86.811 218.326,86.494 218.514,86.292C220.821,83.81 223.113,81.158 225.409,78.365C225.584,78.152 225.9,78.121 226.113,78.297ZM211.743,93.673C211.926,93.881 211.906,94.197 211.698,94.379C208.947,96.803 206.14,98.96 203.247,100.801C203.014,100.949 202.705,100.88 202.557,100.647C202.408,100.414 202.477,100.105 202.71,99.957C205.553,98.149 208.318,96.024 211.037,93.629C211.244,93.446 211.56,93.466 211.743,93.673ZM168.457,95.604C168.721,95.522 169.001,95.669 169.083,95.933C170.173,99.427 171.868,102.193 174.276,104.037C174.495,104.205 174.537,104.518 174.369,104.738C174.201,104.957 173.887,104.999 173.668,104.831C171.049,102.826 169.26,99.857 168.129,96.231C168.046,95.967 168.193,95.687 168.457,95.604ZM194.033,104.882C194.126,105.142 193.991,105.428 193.731,105.521C192.058,106.12 190.351,106.612 188.606,106.989C186.769,107.385 185.062,107.601 183.479,107.646C183.203,107.654 182.973,107.436 182.965,107.16C182.957,106.884 183.174,106.654 183.45,106.646C184.964,106.603 186.609,106.397 188.395,106.011C190.096,105.644 191.761,105.164 193.394,104.58C193.654,104.487 193.94,104.622 194.033,104.882Z" stroke-opacity="0.9" fill-rule="evenodd" fill-opacity="0.9"/>
    <path fill="#EB5757" d="M 385.5 26 C 383.811 26 382.001 26.035 380.096 26.124 L 380.049 25.125 C 381.972 25.035 383.797 25 385.5 25 L 385.5 26 Z M 369.318 27.181 C 365.884 27.708 362.326 28.451 358.749 29.481 L 358.472 28.52 C 362.095 27.476 365.696 26.726 369.167 26.193 L 369.318 27.181 Z M 348.629 33.241 C 345.429 34.732 342.296 36.518 339.31 38.652 L 338.728 37.838 C 341.77 35.665 344.956 33.849 348.206 32.335 L 348.629 33.241 Z M 331.229 45.755 C 328.881 48.289 326.706 51.142 324.76 54.353 L 323.904 53.834 C 325.886 50.565 328.102 47.659 330.495 45.075 L 331.229 45.755 Z M 320.05 64.046 C 318.837 67.228 317.81 70.673 316.999 74.404 L 316.022 74.191 C 316.843 70.414 317.884 66.921 319.116 63.69 L 320.05 64.046 Z M 315.365 85.115 C 315.201 86.865 315.079 88.667 315 90.521 C 314.929 92.178 314.826 93.786 314.692 95.346 L 313.696 95.261 C 313.828 93.715 313.93 92.122 314 90.479 C 314.08 88.608 314.204 86.789 314.37 85.022 L 315.365 85.115 Z M 313.393 104.92 C 312.745 108.312 311.929 111.423 310.973 114.272 L 310.025 113.954 C 310.966 111.15 311.77 108.083 312.41 104.732 L 313.393 104.92 Z M 307.131 123.151 C 305.453 126.214 303.577 128.845 301.571 131.093 L 300.825 130.427 C 302.779 128.237 304.611 125.669 306.254 122.671 L 307.131 123.151 Z M 294.213 137.418 C 291.307 139.294 288.314 140.608 285.389 141.478 L 285.104 140.519 C 287.944 139.675 290.849 138.399 293.671 136.578 L 294.213 137.418 Z M 275.773 142.89 C 274.028 142.889 272.393 142.745 270.916 142.493 L 271.084 141.507 C 272.503 141.749 274.082 141.889 275.774 141.89 L 275.773 142.89 Z" stroke-opacity="0.9" fill-rule="evenodd" fill-opacity="0.9"/>
    <path fill="#EB5757" d="M 86.088 318.948 L 83.502 317.709 L 84.865 320.232 C 85.277 320.994 85.152 321.935 84.554 322.562 L 82.576 324.639 L 85.397 324.121 C 86.249 323.965 87.105 324.375 87.517 325.137 L 88.881 327.66 L 89.26 324.818 C 89.375 323.959 90.03 323.272 90.882 323.115 L 93.702 322.598 L 91.116 321.359 C 90.335 320.984 89.884 320.149 89.998 319.29 L 90.378 316.448 L 88.4 318.524 C 87.803 319.152 86.869 319.323 86.088 318.948 Z M 83.934 316.807 C 83.06 316.389 82.161 317.332 82.622 318.185 L 83.986 320.707 C 84.192 321.088 84.129 321.559 83.83 321.872 L 81.852 323.949 C 81.184 324.65 81.804 325.797 82.757 325.622 L 85.577 325.105 C 86.003 325.027 86.431 325.232 86.637 325.613 L 88.001 328.136 C 88.461 328.988 89.743 328.753 89.872 327.793 L 90.251 324.95 C 90.309 324.521 90.636 324.177 91.062 324.099 L 93.883 323.582 C 94.836 323.407 95.008 322.115 94.135 321.696 L 91.549 320.457 C 91.158 320.27 90.932 319.852 90.99 319.423 L 91.369 316.58 C 91.498 315.62 90.322 315.057 89.654 315.758 L 87.676 317.835 C 87.377 318.148 86.911 318.234 86.52 318.047 L 83.934 316.807 Z" stroke-opacity="0.9" fill-rule="evenodd" fill-opacity="0.9"/>
    <path fill="#EB5757" d="M 30.379 187.924 C 28.69 187.924 26.88 187.959 24.975 188.048 L 24.928 187.049 C 26.851 186.959 28.676 186.924 30.379 186.924 L 30.379 187.924 Z M 14.197 189.105 C 10.763 189.632 7.205 190.375 3.628 191.405 L 3.351 190.444 C 6.974 189.4 10.575 188.65 14.046 188.117 L 14.197 189.105 Z M -6.492 195.165 C -9.692 196.656 -12.825 198.442 -15.811 200.576 L -16.393 199.762 C -13.351 197.589 -10.165 195.773 -6.915 194.259 L -6.492 195.165 Z M -23.892 207.679 C -26.24 210.213 -28.415 213.066 -30.361 216.277 L -31.217 215.758 C -29.235 212.489 -27.019 209.583 -24.626 206.999 L -23.892 207.679 Z M -35.071 225.97 C -36.284 229.152 -37.311 232.597 -38.122 236.328 L -39.099 236.115 C -38.278 232.338 -37.237 228.845 -36.005 225.614 L -35.071 225.97 Z M -39.756 247.039 C -39.92 248.789 -40.042 250.591 -40.121 252.445 C -40.192 254.102 -40.295 255.71 -40.429 257.27 L -41.425 257.185 C -41.293 255.639 -41.191 254.046 -41.121 252.403 C -41.041 250.532 -40.917 248.713 -40.751 246.946 L -39.756 247.039 Z M -41.728 266.844 C -42.376 270.236 -43.192 273.347 -44.148 276.196 L -45.096 275.878 C -44.155 273.074 -43.351 270.007 -42.711 266.656 L -41.728 266.844 Z M -47.99 285.075 C -49.668 288.138 -51.544 290.769 -53.55 293.017 L -54.296 292.351 C -52.342 290.161 -50.51 287.593 -48.867 284.595 L -47.99 285.075 Z M -60.908 299.342 C -63.814 301.218 -66.807 302.532 -69.732 303.402 L -70.017 302.443 C -67.177 301.599 -64.272 300.323 -61.45 298.502 L -60.908 299.342 Z M -79.348 304.814 C -81.093 304.813 -82.728 304.669 -84.205 304.417 L -84.037 303.431 C -82.618 303.673 -81.039 303.813 -79.347 303.814 L -79.348 304.814 Z" stroke-opacity="0.9" fill-rule="evenodd" fill-opacity="0.9"/>
  </g>
  <path fill="#EB5757" d="M 70.292 45.148 C 70.292 32.052 81.746 21.5 95.792 21.5 C 109.838 21.5 121.292 32.052 121.292 45.148 C 121.292 58.244 109.838 68.796 95.792 68.796 C 93.326 68.796 90.941 68.47 88.685 67.864 L 79.609 72.845 L 79.609 63.423 C 73.929 59.092 70.292 52.52 70.292 45.148 Z M 95.792 22.5 C 82.224 22.5 71.292 32.675 71.292 45.148 C 71.292 52.26 74.84 58.615 80.408 62.773 L 80.609 62.923 L 80.609 71.155 L 88.559 66.792 L 88.754 66.846 C 90.983 67.463 93.345 67.796 95.792 67.796 C 109.36 67.796 120.292 57.621 120.292 45.148 C 120.292 32.675 109.36 22.5 95.792 22.5 Z M 93.149 37.941 L 99.768 44.833 L 111.699 38.229 L 112.305 39.01 L 98.641 53.516 L 98.277 53.173 L 97.912 53.515 L 91.81 47.007 L 79.728 53.612 L 79.124 52.83 L 93.149 37.941 Z M 98.277 52.443 L 109.381 40.655 L 99.58 46.081 L 93.156 39.392 L 82.01 51.224 L 92.01 45.758 L 98.277 52.443 Z" stroke-opacity="0.9" fill-rule="evenodd" fill-opacity="0.9" clip-path="url(#clip_path_2)"/>
  <path fill="#EB5757" d="M 151.365 90.52 L 151.365 99.251 L 158.926 94.885 L 151.365 90.52 Z M 152.365 92.252 L 152.365 97.519 L 156.926 94.885 L 152.365 92.252 Z" stroke-opacity="0.9" fill-rule="evenodd" fill-opacity="0.9"/>
  <path fill="#EB5757" d="M 4 87 C 12.837 87 20 79.837 20 71 C 20 62.163 12.837 55 4 55 C -4.837 55 -12 62.163 -12 71 C -12 79.837 -4.837 87 4 87 Z M 4 88 C 13.389 88 21 80.389 21 71 C 21 61.611 13.389 54 4 54 C -5.389 54 -13 61.611 -13 71 C -13 80.389 -5.389 88 4 88 Z" stroke-opacity="0.9" fill-rule="evenodd" fill-opacity="0.9"/>
  <path fill="#EB5757" d="M 122.065 -133.496 C 123.74 -133.276 125.354 -133.043 126.908 -132.794 L 126.75 -131.807 C 125.206 -132.053 123.602 -132.286 121.935 -132.504 L 122.065 -133.496 Z M 136.238 -130.97 C 139.737 -130.138 142.819 -129.208 145.506 -128.186 L 145.151 -127.252 C 142.512 -128.255 139.472 -129.173 136.007 -129.997 L 136.238 -130.97 Z M 154.034 -123.752 C 157.168 -121.45 159.083 -118.846 159.868 -115.98 L 158.904 -115.716 C 158.192 -118.314 156.441 -120.743 153.442 -122.946 L 154.034 -123.752 Z M 158.773 -106.36 C 157.62 -103.728 155.833 -101.001 153.509 -98.203 L 152.74 -98.842 C 155.024 -101.592 156.752 -104.24 157.857 -106.761 L 158.773 -106.36 Z M 146.85 -91.279 C 144.635 -89.234 142.183 -87.159 139.524 -85.063 L 138.905 -85.849 C 141.547 -87.931 143.978 -89.989 146.171 -92.014 L 146.85 -91.279 Z M 131.854 -79.357 C 129.326 -77.572 126.67 -75.778 123.901 -73.979 L 123.356 -74.818 C 126.115 -76.61 128.761 -78.397 131.277 -80.174 L 131.854 -79.357 Z M 115.803 -68.896 C 113.124 -67.268 110.367 -65.641 107.543 -64.019 L 107.045 -64.886 C 109.862 -66.504 112.612 -68.127 115.284 -69.751 L 115.803 -68.896 Z M 99.202 -59.343 C 96.435 -57.828 93.62 -56.32 90.767 -54.824 L 90.302 -55.71 C 93.15 -57.203 95.96 -58.708 98.722 -60.22 L 99.202 -59.343 Z M 82.251 -50.445 C 79.416 -49.014 76.554 -47.597 73.675 -46.197 L 73.238 -47.096 C 76.112 -48.494 78.97 -49.909 81.801 -51.338 L 82.251 -50.445 Z M 65.044 -42.068 C 63.6 -41.389 62.156 -40.715 60.71 -40.046 C 59.104 -39.304 57.525 -38.537 55.97 -37.749 L 55.518 -38.64 C 57.083 -39.434 58.674 -40.206 60.29 -40.954 C 61.734 -41.622 63.177 -42.295 64.618 -42.972 L 65.044 -42.068 Z M 46.79 -32.669 C 43.752 -30.845 40.816 -28.935 37.974 -26.95 L 37.402 -27.77 C 40.262 -29.768 43.217 -31.69 46.275 -33.527 L 46.79 -32.669 Z M 29.569 -20.663 C 26.809 -18.457 24.141 -16.184 21.557 -13.856 L 20.888 -14.599 C 23.485 -16.939 26.168 -19.225 28.945 -21.444 L 29.569 -20.663 Z M 13.945 -6.615 C 11.449 -4.115 9.035 -1.571 6.692 1.002 L 5.952 0.329 C 8.305 -2.254 10.73 -4.809 13.237 -7.321 L 13.945 -6.615 Z M -85.769 7.023 C -85.164 5.393 -84.56 3.821 -83.965 2.316 L -83.035 2.684 C -83.628 4.182 -84.229 5.748 -84.832 7.371 L -85.769 7.023 Z M -0.236 8.918 C -2.517 11.624 -4.731 14.345 -6.888 17.066 L -7.672 16.444 C -5.509 13.717 -3.289 10.988 -1 8.274 L -0.236 8.918 Z M -92.082 26.252 C -91.141 22.953 -90.139 19.708 -89.11 16.576 L -88.16 16.888 C -89.186 20.009 -90.183 23.241 -91.121 26.527 L -92.082 26.252 Z M -13.341 25.395 C -15.493 28.229 -17.593 31.045 -19.655 33.824 L -20.458 33.229 C -18.396 30.448 -16.292 27.629 -14.137 24.79 L -13.341 25.395 Z M -96.708 45.957 C -96.13 42.689 -95.432 39.365 -94.645 36.042 L -93.672 36.272 C -94.455 39.58 -95.149 42.885 -95.723 46.131 L -96.708 45.957 Z M -25.922 42.285 C -28.063 45.168 -30.174 47.987 -32.267 50.718 L -33.061 50.11 C -30.972 47.384 -28.865 44.57 -26.725 41.689 L -25.922 42.285 Z M -98.429 66.148 C -98.552 62.968 -98.422 59.555 -98.089 55.994 L -97.094 56.088 C -97.424 59.614 -97.551 62.982 -97.429 66.109 L -98.429 66.148 Z M -38.818 59 C -41.124 61.805 -43.429 64.473 -45.754 66.973 L -46.486 66.292 C -44.179 63.81 -41.887 61.158 -39.591 58.365 L -38.818 59 Z M -53.302 74.379 C -56.053 76.803 -58.86 78.96 -61.753 80.801 L -62.29 79.957 C -59.448 78.149 -56.682 76.024 -53.963 73.629 L -53.302 74.379 Z M -91.332 84.831 C -93.951 82.826 -95.74 79.857 -96.871 76.23 L -95.917 75.933 C -94.827 79.427 -93.132 82.193 -90.724 84.037 L -91.332 84.831 Z M -71.269 85.521 C -72.942 86.12 -74.649 86.612 -76.394 86.989 C -78.231 87.385 -79.938 87.601 -81.521 87.646 L -81.55 86.646 C -80.036 86.603 -78.391 86.397 -76.605 86.011 C -74.904 85.644 -73.239 85.164 -71.606 84.58 L -71.269 85.521 Z" stroke-opacity="0.9" fill-rule="evenodd" fill-opacity="0.9"/>
  <path fill="#EB5757" d="M 113.5 -4 C 111.811 -4 110.001 -3.965 108.096 -3.876 C 107.82 -3.864 107.586 -4.077 107.573 -4.353 C 107.56 -4.628 107.773 -4.862 108.049 -4.875 C 109.972 -4.965 111.797 -5 113.5 -5 C 113.776 -5 114 -4.776 114 -4.5 C 114 -4.224 113.776 -4 113.5 -4 Z M 97.737 -3.389 C 97.779 -3.116 97.591 -2.861 97.318 -2.819 C 93.884 -2.292 90.326 -1.549 86.749 -0.519 C 86.484 -0.443 86.207 -0.596 86.13 -0.861 C 86.054 -1.127 86.207 -1.404 86.472 -1.48 C 90.095 -2.524 93.696 -3.274 97.166 -3.807 C 97.439 -3.849 97.695 -3.662 97.737 -3.389 Z M 76.87 2.577 C 76.987 2.827 76.879 3.125 76.629 3.241 C 73.429 4.732 70.296 6.518 67.31 8.652 C 67.085 8.812 66.773 8.76 66.612 8.535 C 66.452 8.311 66.504 7.998 66.728 7.838 C 69.77 5.665 72.956 3.849 76.206 2.335 C 76.456 2.218 76.754 2.326 76.87 2.577 Z M 59.202 15.048 C 59.404 15.236 59.417 15.552 59.229 15.755 C 56.881 18.289 54.706 21.142 52.759 24.353 C 52.616 24.589 52.309 24.664 52.073 24.521 C 51.837 24.378 51.761 24.07 51.904 23.834 C 53.886 20.565 56.102 17.659 58.495 15.075 C 58.683 14.873 58.999 14.861 59.202 15.048 Z M 47.761 33.401 C 48.019 33.499 48.148 33.788 48.05 34.046 C 46.837 37.228 45.81 40.673 44.999 44.404 C 44.941 44.674 44.674 44.845 44.404 44.786 C 44.135 44.728 43.963 44.461 44.022 44.191 C 44.843 40.414 45.884 36.921 47.116 33.69 C 47.214 33.432 47.503 33.303 47.761 33.401 Z M 42.914 54.571 C 43.189 54.596 43.391 54.84 43.365 55.115 C 43.201 56.865 43.079 58.667 43 60.521 C 42.929 62.178 42.826 63.786 42.692 65.346 C 42.668 65.621 42.426 65.825 42.151 65.802 C 41.876 65.778 41.672 65.536 41.696 65.261 C 41.828 63.715 41.93 62.122 42 60.479 C 42.08 58.608 42.204 56.789 42.37 55.022 C 42.395 54.747 42.639 54.545 42.914 54.571 Z M 40.995 74.335 C 41.267 74.387 41.444 74.649 41.393 74.92 C 40.745 78.312 39.929 81.423 38.973 84.272 C 38.885 84.534 38.602 84.675 38.34 84.587 C 38.078 84.5 37.937 84.216 38.025 83.954 C 38.966 81.15 39.77 78.083 40.41 74.732 C 40.462 74.461 40.724 74.283 40.995 74.335 Z M 34.932 92.472 C 35.175 92.605 35.263 92.909 35.131 93.151 C 33.453 96.214 31.577 98.845 29.571 101.093 C 29.387 101.299 29.071 101.317 28.865 101.133 C 28.659 100.949 28.641 100.633 28.825 100.427 C 30.779 98.237 32.611 95.669 34.254 92.671 C 34.386 92.428 34.69 92.34 34.932 92.472 Z M 22.362 106.727 C 22.512 106.959 22.445 107.268 22.213 107.418 C 19.307 109.294 16.314 110.608 13.389 111.478 C 13.125 111.556 12.846 111.405 12.767 111.141 C 12.689 110.876 12.84 110.598 13.104 110.519 C 15.944 109.675 18.849 108.399 21.671 106.578 C 21.903 106.428 22.213 106.495 22.362 106.727 Z M -1.493 111.916 C -1.446 111.644 -1.188 111.461 -0.916 111.507 C 0.503 111.749 2.082 111.889 3.774 111.89 C 4.05 111.89 4.274 112.114 4.274 112.39 C 4.273 112.666 4.05 112.89 3.773 112.89 C 2.028 112.889 0.393 112.745 -1.084 112.493 C -1.356 112.446 -1.539 112.188 -1.493 111.916 Z" stroke-opacity="0.9" fill-rule="evenodd" fill-opacity="0.9"/>
  <g id="g_3">
    <path fill="#EB5757" d="M14.5,212C14.5,197.938 25.934,186.5 39.993,186.5H40.493V186.505C54.328,186.765 65.5,198.1 65.5,212C65.5,226.062 54.066,237.5 40.007,237.5C34.908,237.5 30.17,236.007 26.18,233.419L15.858,236.718L19.205,226.737C16.239,222.577 14.5,217.483 14.5,212ZM39.849,187.5C26.409,187.578 15.5,198.538 15.5,212C15.5,217.358 17.228,222.326 20.165,226.359L20.317,226.567L17.433,235.165L26.331,232.321L26.531,232.453C30.403,235.017 35.024,236.5 40.007,236.5C53.513,236.5 64.5,225.51 64.5,212C64.5,198.49 53.513,187.5 40.007,187.5H39.849Z" stroke-opacity="0.9" fill-rule="evenodd" fill-opacity="0.9" clip-path="url(#clip_path_3)"/>
    <path fill="#EB5757" d="M45.081,218.995L45.065,218.999C44.03,219.221 43.046,218.952 42.472,218.795C42.392,218.773 42.319,218.753 42.256,218.737L42.243,218.734L42.23,218.73C37.391,217.405 34.43,214.296 32.625,210.21L32.621,210.202L32.617,210.193C32.312,209.469 32.197,208.48 32.807,207.514C33.09,207.056 33.429,206.736 33.704,206.488L33.72,206.473L33.737,206.459C33.816,206.391 33.879,206.332 33.964,206.252C34.006,206.213 34.053,206.168 34.111,206.115C34.254,205.982 34.443,205.813 34.676,205.651C35.233,205.211 35.404,204.474 34.959,203.744C33.805,202.045 32.422,200.497 30.882,199.06C30.653,198.849 30.449,198.77 30.303,198.751C30.174,198.734 30.015,198.751 29.799,198.875L29.788,198.882L29.788,198.882C28.67,199.513 27.716,200.272 26.967,201.198C26.564,201.714 26.222,202.259 26.042,202.769C25.865,203.269 25.869,203.654 26.019,203.965C26.739,205.436 27.435,206.858 28.251,208.209L28.252,208.211C29.985,211.101 31.966,213.763 34.461,216.036C38.838,220.014 44.289,222.354 50.289,223.96L50.311,223.966L50.334,223.973C50.699,224.086 51.095,224.138 51.641,224.198C51.795,224.14 51.942,224.09 52.065,224.047C52.123,224.027 52.175,224.009 52.221,223.993C52.477,223.902 52.635,223.834 52.761,223.757C54.219,222.824 55.281,221.492 55.987,219.916L55.993,219.902L56,219.888C56.149,219.577 56.124,219.25 55.655,218.917C55.216,218.667 54.766,218.421 54.306,218.169L54.301,218.166C53.836,217.912 53.36,217.652 52.892,217.385C52.618,217.242 52.347,217.098 52.079,216.956C51.375,216.582 50.686,216.216 49.975,215.876C49.398,215.599 48.848,215.69 48.396,216.094C48.276,216.202 48.147,216.353 47.979,216.58C47.937,216.638 47.875,216.726 47.804,216.825C47.678,217.002 47.525,217.216 47.41,217.367C46.968,217.945 46.271,218.712 45.097,218.992L45.081,218.995ZM53.622,216.311C53.355,216.171 53.087,216.029 52.817,215.886C52.105,215.508 51.383,215.124 50.648,214.772C49.636,214.287 48.461,214.42 47.542,215.243C47.217,215.535 46.957,215.901 46.699,216.266C46.226,216.933 45.756,217.597 44.886,217.804C44.211,217.949 43.576,217.781 42.971,217.621C42.879,217.597 42.788,217.573 42.697,217.55C38.273,216.339 35.54,213.51 33.837,209.655C33.619,209.139 33.591,208.572 33.918,208.061C34.092,207.776 34.306,207.566 34.563,207.334C34.671,207.242 34.771,207.148 34.87,207.055C35.044,206.891 35.214,206.732 35.417,206.594C36.653,205.652 36.794,204.172 36.09,203.04C34.88,201.253 33.435,199.637 31.84,198.149C31.104,197.47 30.147,197.295 29.192,197.846C27.941,198.553 26.832,199.427 25.948,200.522C25.041,201.678 24.187,203.242 24.824,204.556C25.541,206.021 26.257,207.486 27.101,208.884C28.869,211.833 30.913,214.587 33.511,216.953C38.072,221.098 43.721,223.507 49.829,225.142C50.371,225.309 50.952,225.371 51.586,225.439C51.632,225.444 51.678,225.449 51.724,225.454C51.941,225.358 52.161,225.282 52.379,225.207C52.734,225.084 53.085,224.962 53.414,224.759C55.156,223.648 56.387,222.08 57.183,220.303C57.646,219.332 57.291,218.453 56.448,217.878C55.984,217.613 55.509,217.354 55.035,217.094C54.56,216.835 54.086,216.576 53.622,216.311Z" stroke-opacity="0.9" fill-rule="evenodd" fill-opacity="0.9"/>
    <path fill="#EB5757" d="M108.5,282C110.985,282 113,279.985 113,277.5C113,275.015 110.985,273 108.5,273C106.015,273 104,275.015 104,277.5C104,279.985 106.015,282 108.5,282ZM108.5,283C111.538,283 114,280.538 114,277.5C114,274.462 111.538,272 108.5,272C105.462,272 103,274.462 103,277.5C103,280.538 105.462,283 108.5,283Z" stroke-opacity="0.9" fill-rule="evenodd" fill-opacity="0.9"/>
    <path fill="#EB5757" d="M86.504,186.935C86.54,186.661 86.791,186.468 87.065,186.504C88.74,186.724 90.354,186.957 91.908,187.206C92.18,187.249 92.366,187.505 92.323,187.778C92.279,188.051 92.023,188.237 91.75,188.193C90.206,187.947 88.602,187.714 86.935,187.496C86.661,187.46 86.468,187.209 86.504,186.935ZM100.636,189.401C100.7,189.132 100.969,188.966 101.238,189.03C104.737,189.862 107.819,190.792 110.506,191.814C110.764,191.912 110.894,192.201 110.796,192.459C110.698,192.717 110.409,192.847 110.151,192.748C107.512,191.745 104.472,190.827 101.007,190.003C100.738,189.939 100.572,189.67 100.636,189.401ZM118.335,196.355C118.499,196.132 118.812,196.084 119.034,196.248C122.168,198.55 124.083,201.154 124.868,204.02C124.941,204.286 124.784,204.561 124.518,204.634C124.252,204.707 123.977,204.55 123.904,204.284C123.192,201.686 121.441,199.257 118.442,197.054C118.22,196.89 118.172,196.577 118.335,196.355ZM123.515,212.982C123.768,213.093 123.883,213.387 123.773,213.64C122.62,216.272 120.833,219 118.509,221.797C118.333,222.009 118.017,222.038 117.805,221.862C117.593,221.685 117.563,221.37 117.74,221.158C120.024,218.408 121.752,215.76 122.857,213.239C122.967,212.986 123.262,212.871 123.515,212.982ZM111.878,228.014C112.065,228.217 112.053,228.534 111.85,228.721C109.635,230.766 107.183,232.841 104.524,234.937C104.307,235.108 103.992,235.07 103.821,234.854C103.65,234.637 103.688,234.322 103.905,234.151C106.547,232.069 108.978,230.011 111.171,227.986C111.374,227.799 111.691,227.812 111.878,228.014ZM96.974,239.946C97.134,240.171 97.08,240.483 96.854,240.643C94.326,242.428 91.67,244.222 88.901,246.021C88.669,246.172 88.36,246.106 88.209,245.874C88.059,245.643 88.125,245.333 88.356,245.183C91.115,243.39 93.761,241.603 96.277,239.826C96.503,239.666 96.815,239.72 96.974,239.946ZM80.971,250.417C81.114,250.653 81.039,250.96 80.803,251.104C78.124,252.732 75.367,254.359 72.543,255.981C72.304,256.119 71.998,256.036 71.86,255.797C71.723,255.557 71.805,255.252 72.045,255.114C74.862,253.496 77.612,251.873 80.284,250.249C80.52,250.106 80.827,250.181 80.971,250.417ZM64.4,259.979C64.533,260.221 64.444,260.525 64.202,260.657C61.435,262.172 58.62,263.679 55.767,265.176C55.522,265.304 55.22,265.21 55.092,264.965C54.964,264.721 55.058,264.419 55.302,264.29C58.15,262.797 60.96,261.292 63.722,259.78C63.964,259.647 64.268,259.736 64.4,259.979ZM47.472,268.883C47.597,269.13 47.498,269.431 47.251,269.555C44.416,270.986 41.554,272.403 38.675,273.803C38.427,273.924 38.128,273.821 38.007,273.573C37.886,273.324 37.99,273.025 38.238,272.904C41.112,271.506 43.97,270.091 46.801,268.662C47.048,268.538 47.348,268.637 47.472,268.883ZM30.283,277.267C30.401,277.517 30.294,277.815 30.044,277.932C28.6,278.611 27.156,279.285 25.71,279.954C24.104,280.696 22.525,281.463 20.97,282.251C20.724,282.376 20.423,282.278 20.298,282.032C20.173,281.786 20.272,281.485 20.518,281.36C22.083,280.566 23.674,279.794 25.29,279.046C26.734,278.378 28.177,277.705 29.618,277.027C29.868,276.91 30.166,277.017 30.283,277.267ZM11.961,286.645C12.103,286.881 12.026,287.188 11.79,287.331C8.752,289.155 5.816,291.065 2.974,293.05C2.748,293.208 2.436,293.152 2.278,292.926C2.12,292.7 2.175,292.388 2.402,292.23C5.262,290.232 8.217,288.31 11.275,286.473C11.512,286.331 11.819,286.408 11.961,286.645ZM-5.352,298.634C-5.18,298.85 -5.215,299.164 -5.431,299.337C-8.191,301.543 -10.859,303.816 -13.443,306.144C-13.648,306.329 -13.964,306.312 -14.149,306.107C-14.333,305.902 -14.317,305.586 -14.112,305.401C-11.515,303.061 -8.832,300.775 -6.055,298.556C-5.839,298.383 -5.524,298.418 -5.352,298.634ZM-21.056,312.678C-20.86,312.873 -20.86,313.19 -21.055,313.385C-23.551,315.885 -25.965,318.429 -28.308,321.002C-28.494,321.206 -28.81,321.221 -29.015,321.035C-29.219,320.849 -29.233,320.533 -29.048,320.329C-26.695,317.745 -24.27,315.191 -21.763,312.679C-21.568,312.483 -21.251,312.483 -21.056,312.678ZM-118.316,322.035C-118.059,322.137 -117.933,322.427 -118.035,322.684C-118.628,324.182 -119.229,325.748 -119.832,327.371C-119.928,327.63 -120.216,327.762 -120.475,327.665C-120.734,327.569 -120.865,327.281 -120.769,327.023C-120.164,325.393 -119.56,323.821 -118.965,322.316C-118.863,322.059 -118.572,321.933 -118.316,322.035ZM-35.296,328.214C-35.085,328.392 -35.058,328.707 -35.236,328.918C-37.517,331.624 -39.731,334.345 -41.888,337.066C-42.06,337.282 -42.374,337.319 -42.591,337.147C-42.807,336.975 -42.843,336.661 -42.672,336.444C-40.509,333.717 -38.289,330.988 -36,328.274C-35.822,328.063 -35.507,328.036 -35.296,328.214ZM-123.479,336.257C-123.217,336.343 -123.074,336.626 -123.16,336.888C-124.186,340.009 -125.183,343.241 -126.121,346.527C-126.197,346.792 -126.473,346.946 -126.739,346.87C-127.004,346.795 -127.158,346.518 -127.082,346.252C-126.141,342.953 -125.139,339.709 -124.11,336.576C-124.024,336.314 -123.742,336.171 -123.479,336.257ZM-48.437,344.695C-48.217,344.861 -48.174,345.175 -48.341,345.395C-50.493,348.229 -52.593,351.045 -54.655,353.824C-54.82,354.046 -55.133,354.093 -55.355,353.928C-55.576,353.764 -55.623,353.45 -55.458,353.229C-53.396,350.448 -51.292,347.629 -49.137,344.79C-48.97,344.57 -48.657,344.528 -48.437,344.695ZM-129.043,355.67C-128.774,355.734 -128.608,356.003 -128.672,356.272C-129.455,359.58 -130.149,362.885 -130.723,366.131C-130.771,366.403 -131.03,366.585 -131.302,366.537C-131.574,366.489 -131.756,366.229 -131.708,365.958C-131.13,362.689 -130.432,359.365 -129.645,356.042C-129.581,355.773 -129.312,355.607 -129.043,355.67ZM-61.025,361.586C-60.804,361.75 -60.757,362.063 -60.922,362.285C-63.063,365.168 -65.174,367.987 -67.267,370.718C-67.435,370.937 -67.749,370.979 -67.968,370.811C-68.188,370.643 -68.229,370.329 -68.061,370.11C-65.972,367.384 -63.865,364.57 -61.725,361.689C-61.56,361.467 -61.247,361.421 -61.025,361.586ZM-132.545,375.543C-132.27,375.569 -132.068,375.813 -132.094,376.088C-132.424,379.614 -132.551,382.982 -132.429,386.109C-132.419,386.385 -132.634,386.617 -132.91,386.628C-133.186,386.639 -133.418,386.424 -133.429,386.148C-133.552,382.968 -133.422,379.555 -133.089,375.995C-133.063,375.72 -132.82,375.518 -132.545,375.543ZM-73.887,378.297C-73.674,378.472 -73.643,378.787 -73.818,379C-76.124,381.805 -78.429,384.473 -80.754,386.973C-80.942,387.175 -81.258,387.187 -81.46,386.999C-81.663,386.811 -81.674,386.494 -81.486,386.292C-79.179,383.81 -76.887,381.158 -74.591,378.365C-74.416,378.152 -74.101,378.121 -73.887,378.297ZM-88.257,393.673C-88.075,393.881 -88.094,394.197 -88.302,394.379C-91.053,396.803 -93.86,398.96 -96.753,400.801C-96.986,400.949 -97.295,400.88 -97.443,400.647C-97.592,400.414 -97.523,400.105 -97.29,399.957C-94.448,398.149 -91.682,396.024 -88.963,393.629C-88.756,393.446 -88.44,393.466 -88.257,393.673ZM-131.543,395.604C-131.279,395.522 -130.999,395.669 -130.917,395.933C-129.827,399.427 -128.132,402.193 -125.724,404.037C-125.505,404.205 -125.463,404.518 -125.631,404.738C-125.799,404.957 -126.113,404.999 -126.332,404.831C-128.951,402.826 -130.74,399.857 -131.871,396.231C-131.954,395.967 -131.807,395.687 -131.543,395.604ZM-105.967,404.882C-105.874,405.142 -106.009,405.428 -106.269,405.521C-107.942,406.12 -109.649,406.612 -111.394,406.989C-113.231,407.385 -114.938,407.601 -116.521,407.646C-116.797,407.654 -117.027,407.436 -117.035,407.16C-117.043,406.884 -116.826,406.654 -116.55,406.646C-115.036,406.603 -113.391,406.397 -111.605,406.011C-109.904,405.644 -108.239,405.164 -106.606,404.58C-106.346,404.487 -106.06,404.622 -105.967,404.882Z" stroke-opacity="0.9" fill-rule="evenodd" fill-opacity="0.9"/>
    <path fill="#EB5757" d="M 38.5 301.464 C 40.985 301.464 43 299.449 43 296.964 C 43 294.479 40.985 292.464 38.5 292.464 C 36.015 292.464 34 294.479 34 296.964 C 34 299.449 36.015 301.464 38.5 301.464 Z M 38.5 302.464 C 41.538 302.464 44 300.002 44 296.964 C 44 293.926 41.538 291.464 38.5 291.464 C 35.462 291.464 33 293.926 33 296.964 C 33 300.002 35.462 302.464 38.5 302.464 Z" stroke-opacity="0.9" fill-rule="evenodd" fill-opacity="0.9"/>
  </g>
  <path fill="#EB5757" d="M178.356,128.754C171.727,124.208 164.368,121.017 156.552,119.215H156.494L156.397,119.196C154.114,118.739 151.282,119.099 148.619,120.083C145.955,121.067 143.593,122.626 142.196,124.429L142.157,124.479L142.133,124.504C138.17,129.98 135.485,136.146 134.147,142.802V142.859L134.133,142.943C133.81,144.836 134.086,147.132 134.849,149.399C135.61,151.659 136.828,153.813 138.301,155.419L138.89,156.062C139.068,156.232 139.28,156.43 139.522,156.646C140.293,157.335 141.37,158.212 142.655,159.018L142.657,159.019C143.417,159.499 145.085,160.305 146.697,161.054C147.356,161.361 148.013,161.66 148.571,161.915C148.938,162.083 149.263,162.231 149.518,162.349L149.963,162.527C150.071,162.57 150.166,162.613 150.244,162.647L150.249,162.65C150.332,162.686 150.396,162.715 150.466,162.743L150.479,162.748L150.492,162.753C154.139,164.332 157.921,165.595 161.838,166.477H161.898L161.996,166.496C164.279,166.953 167.111,166.593 169.774,165.61C172.438,164.626 174.8,163.067 176.197,161.263L176.235,161.213L176.26,161.189C180.223,155.712 182.907,149.546 184.245,142.891V142.835L184.259,142.752C184.632,140.531 184.175,137.755 183.088,135.138C182.001,132.522 180.34,130.198 178.447,128.827L178.383,128.781L178.356,128.754ZM185.245,142.99C183.881,149.848 181.116,156.203 177.023,161.84L176.987,161.876C173.899,165.861 166.826,168.482 161.799,167.477H161.728C157.885,166.619 154.173,165.401 150.592,163.884C150.426,163.814 150.26,163.743 150.094,163.671C150.005,163.635 149.924,163.599 149.843,163.563C149.789,163.539 149.735,163.515 149.679,163.492C149.656,163.482 149.632,163.472 149.608,163.462C149.602,163.46 149.597,163.458 149.592,163.456V163.492C149.588,163.49 149.584,163.487 149.58,163.485C149.564,163.477 149.544,163.467 149.521,163.456C149.357,163.375 149.027,163.223 148.592,163.024C148.482,162.974 148.365,162.921 148.243,162.865C146.421,162.034 143.32,160.62 142.124,159.865C140.386,158.776 139.023,157.568 138.245,156.828C138.008,156.604 137.826,156.422 137.704,156.301C137.605,156.202 137.545,156.142 137.528,156.131L137.564,156.095C137.561,156.093 137.559,156.09 137.557,156.088C134.401,152.64 132.43,146.972 133.147,142.774V142.703C134.512,135.845 137.276,129.49 141.37,123.853L141.406,123.817C144.493,119.831 151.567,117.21 156.593,118.215H156.665C164.672,120.047 172.212,123.314 178.998,127.982L179.034,128.018C183.199,131.034 186.071,137.999 185.245,142.918V142.99Z" stroke-opacity="0.9" fill-rule="evenodd" fill-opacity="0.9" id="path_0"/>
  <path fill="#EB5757" d="M158.247,150.662L158.235,150.659C157.471,150.42 156.911,149.837 156.585,149.497C156.539,149.449 156.498,149.406 156.462,149.37L156.454,149.363L156.447,149.355C153.698,146.488 152.819,143.032 153.047,139.302L153.047,139.295L153.048,139.287C153.098,138.632 153.367,137.854 154.109,137.377C154.457,137.147 154.794,137.043 155.063,136.966L155.079,136.961L155.095,136.957C155.171,136.938 155.233,136.919 155.318,136.893C155.359,136.88 155.406,136.865 155.463,136.848C155.605,136.806 155.789,136.754 156.001,136.725C156.524,136.616 156.894,136.137 156.854,135.423C156.682,133.715 156.304,132.03 155.784,130.365C155.706,130.119 155.598,129.982 155.507,129.911C155.428,129.848 155.316,129.798 155.13,129.807L155.12,129.807L155.12,129.807C154.157,129.839 153.259,130.03 152.439,130.423C151.991,130.648 151.574,130.919 151.276,131.226C150.985,131.528 150.853,131.814 150.844,132.103C150.808,133.473 150.773,134.798 150.843,136.115L150.843,136.118C150.984,138.933 151.369,141.677 152.231,144.332C153.748,148.984 156.548,152.841 159.969,156.368L159.982,156.382L159.995,156.396C160.197,156.621 160.442,156.814 160.784,157.071C160.906,157.089 161.021,157.108 161.118,157.125C161.163,157.133 161.204,157.14 161.24,157.145C161.442,157.178 161.57,157.189 161.681,157.181C162.974,157.059 164.144,156.486 165.163,155.594L165.172,155.586L165.182,155.578C165.389,155.405 165.487,155.154 165.292,154.724C165.088,154.368 164.875,154.011 164.657,153.645L164.655,153.641C164.435,153.271 164.21,152.893 163.993,152.513C163.861,152.3 163.732,152.089 163.603,151.879C163.267,151.328 162.937,150.788 162.584,150.259C162.298,149.829 161.901,149.682 161.46,149.805C161.343,149.838 161.204,149.9 161.013,150.003C160.965,150.029 160.893,150.07 160.811,150.116C160.666,150.198 160.49,150.297 160.36,150.364C159.865,150.619 159.135,150.916 158.258,150.666L158.247,150.662ZM164.852,152.002C164.724,151.795 164.596,151.585 164.467,151.373C164.126,150.816 163.781,150.251 163.416,149.704C162.914,148.95 162.088,148.591 161.19,148.842C160.872,148.931 160.572,149.101 160.273,149.271C159.727,149.581 159.182,149.89 158.533,149.704C158.035,149.548 157.671,149.176 157.326,148.823C157.273,148.769 157.221,148.715 157.169,148.663C154.655,146.042 153.83,142.882 154.045,139.363C154.081,138.897 154.26,138.466 154.655,138.215C154.871,138.071 155.086,137.999 155.338,137.927C155.442,137.901 155.541,137.871 155.639,137.84C155.811,137.787 155.98,137.735 156.163,137.712C157.312,137.496 157.923,136.455 157.851,135.342C157.671,133.547 157.276,131.788 156.738,130.064C156.487,129.274 155.912,128.772 155.086,128.807C154.009,128.843 152.968,129.059 151.998,129.526C150.993,130.028 149.88,130.854 149.844,132.075C149.808,133.439 149.772,134.804 149.844,136.168C149.988,139.04 150.383,141.877 151.28,144.642C152.86,149.489 155.768,153.474 159.251,157.065C159.553,157.4 159.917,157.672 160.314,157.969C160.343,157.991 160.371,158.012 160.4,158.034C160.578,158.048 160.75,158.077 160.921,158.106C161.2,158.153 161.475,158.2 161.765,158.178C163.308,158.034 164.673,157.352 165.822,156.346C166.468,155.808 166.54,155.018 166.181,154.264C165.965,153.887 165.741,153.51 165.517,153.133C165.292,152.756 165.068,152.379 164.852,152.002Z" stroke-opacity="0.9" fill-rule="evenodd" fill-opacity="0.9" id="path_1"/>
  <path fill="#EB5757" d="M165.569,133.475C164.995,133.08 164.384,132.757 163.774,132.434L163.774,132.434C163.741,132.414 163.707,132.394 163.672,132.374C163.322,132.17 162.889,131.918 163.02,131.429C163.128,130.998 163.63,130.818 164.025,130.962L164.025,130.962C164.133,130.998 164.241,131.034 164.348,131.105C164.972,131.401 165.563,131.736 166.118,132.108C166.465,132.339 166.797,132.585 167.115,132.843C170.759,135.802 172.52,140.462 171.35,145.288C171.144,146.111 170.866,146.935 170.594,147.738C170.534,147.916 170.475,148.092 170.416,148.268C170.273,148.663 169.878,148.95 169.447,148.771C169.016,148.555 168.98,148.088 169.124,147.693C169.174,147.556 169.225,147.418 169.276,147.278C169.52,146.616 169.772,145.934 169.95,145.252C171.17,140.872 169.375,136.024 165.569,133.475Z" stroke-opacity="0.9" fill-rule="evenodd" fill-opacity="0.9" id="path_2"/>
  <path fill="#EB5757" d="M163.487,139.614C163.326,139.474 163.131,139.367 162.941,139.262C162.791,139.18 162.644,139.099 162.518,139.004C162.194,138.753 162.123,138.358 162.338,138.035C162.518,137.747 162.948,137.64 163.272,137.819C165.354,138.896 166.431,140.692 165.569,143.277C165.557,143.309 165.544,143.342 165.531,143.376C165.512,143.423 165.494,143.472 165.474,143.519C165.445,143.59 165.413,143.66 165.378,143.723C165.359,143.756 165.339,143.787 165.318,143.815C165.103,144.067 164.851,144.138 164.636,144.067C164.829,143.873 164.97,143.733 165.072,143.631L164.817,143.439L164.574,144.057C164.556,144.05 164.54,144.044 164.526,144.039V144.039C164.335,143.966 164.431,143.998 164.528,144.031C164.491,144.014 164.456,143.995 164.423,143.975C164.161,143.814 164.044,143.558 164.088,143.251C164.096,143.19 164.112,143.126 164.133,143.061C164.137,143.052 164.14,143.042 164.144,143.032C164.246,142.753 164.315,142.44 164.385,142.128C164.492,141.517 164.42,140.871 164.097,140.297C163.918,140.045 163.738,139.794 163.487,139.614ZM164.744,143.384L164.692,143.538L164.774,143.407L164.744,143.384ZM164.797,143.369L164.76,143.337L164.772,143.301L164.826,143.321L164.797,143.369ZM164.833,143.399L165.086,143.616C165.162,143.54 165.216,143.487 165.254,143.449C165.229,143.411 165.207,143.383 165.193,143.366C165.167,143.334 165.141,143.306 165.116,143.281C165.104,143.317 165.092,143.352 165.079,143.387C165.078,143.391 165.078,143.392 165.078,143.392L165.078,143.39C165.075,143.398 165.072,143.405 165.07,143.412L164.858,143.333L164.833,143.399ZM164.869,143.307L165.079,143.376C165.079,143.356 165.077,143.316 165.055,143.265C165.048,143.245 165.038,143.227 165.028,143.211C165.025,143.206 165.023,143.202 165.02,143.198C165,143.183 164.985,143.173 164.979,143.169L164.977,143.168C164.966,143.16 164.955,143.153 164.945,143.147L164.943,143.145C164.941,143.144 164.939,143.143 164.937,143.142L164.944,143.131L164.939,143.129L164.934,143.14L164.933,143.14C164.919,143.131 164.908,143.125 164.901,143.121C164.897,143.119 164.893,143.116 164.889,143.114C164.886,143.114 164.882,143.113 164.878,143.112C164.867,143.109 164.854,143.106 164.838,143.102L164.78,143.277L164.841,143.297L164.927,143.159L164.869,143.307ZM164.94,143.126C164.942,143.127 164.944,143.128 164.946,143.128L164.948,143.124C164.945,143.122 164.942,143.12 164.942,143.12L164.94,143.126ZM164.927,143.159L164.937,143.142L164.934,143.14L164.927,143.159ZM164.625,144.078L164.636,144.067ZM164.625,144.078C164.627,144.079 164.629,144.08 164.631,144.08L164.636,144.067" stroke-opacity="0.9" fill-rule="evenodd" fill-opacity="0.9" id="path_3"/>
  <path fill="#EB5757" d="M 9.153 146.508 C 8.883 146.799 8.55 146.965 8.134 146.986 L 4.911 147.215 L 4.911 150.459 C 4.911 150.874 4.766 151.228 4.495 151.519 C 4.225 151.81 3.872 151.977 3.456 151.997 C 3.04 152.018 2.707 151.914 2.416 151.665 C 2.146 151.415 2 151.082 2 150.667 L 2 139.957 C 2 139.583 2.146 139.25 2.416 138.938 C 2.686 138.626 3.04 138.439 3.456 138.418 L 9.549 138.003 C 9.944 137.982 10.276 138.086 10.567 138.356 C 10.838 138.626 10.983 138.959 10.983 139.354 C 10.983 139.77 10.838 140.124 10.567 140.415 C 10.297 140.706 9.944 140.872 9.549 140.893 L 4.911 141.184 L 4.911 144.345 L 8.134 144.116 C 8.55 144.095 8.883 144.199 9.153 144.47 C 9.424 144.74 9.549 145.073 9.549 145.468 C 9.549 145.863 9.403 146.216 9.153 146.508 Z M 5.911 143.271 L 8.074 143.118 L 8.084 143.117 C 8.72 143.086 9.35 143.252 9.861 143.763 C 10.339 144.241 10.549 144.838 10.549 145.468 C 10.549 146.124 10.302 146.703 9.913 147.158 L 9.9 147.173 L 9.886 147.188 C 9.45 147.658 8.88 147.947 8.196 147.984 L 5.911 148.146 L 5.911 150.459 C 5.911 151.132 5.667 151.727 5.228 152.2 C 4.778 152.685 4.178 152.963 3.506 152.996 C 2.865 153.028 2.273 152.859 1.765 152.424 L 1.751 152.412 L 1.738 152.399 C 1.248 151.948 1 151.342 1 150.667 L 1 139.957 C 1 139.293 1.268 138.736 1.66 138.283 C 2.091 137.786 2.689 137.458 3.396 137.42 L 9.488 137.004 L 9.496 137.004 C 10.129 136.971 10.736 137.148 11.248 137.623 L 11.261 137.636 L 11.274 137.649 C 11.726 138.1 11.983 138.685 11.983 139.354 C 11.983 140.028 11.739 140.623 11.3 141.095 C 10.856 141.574 10.261 141.855 9.607 141.891 L 5.911 142.123 L 5.911 143.271 Z" stroke-opacity="0.9" fill-rule="evenodd" fill-opacity="0.9" id="path_4"/>
  <path fill="#EB5757" d="M164.153,233.508C163.883,233.799 163.55,233.965 163.134,233.986L159.911,234.215V237.459C159.911,237.874 159.766,238.228 159.495,238.519C159.225,238.81 158.872,238.977 158.456,238.997C158.04,239.018 157.707,238.914 157.416,238.665C157.146,238.415 157,238.082 157,237.667V226.957C157,226.583 157.146,226.25 157.416,225.938C157.686,225.626 158.04,225.439 158.456,225.418L164.548,225.003C164.944,224.982 165.276,225.086 165.567,225.356C165.838,225.626 165.983,225.959 165.983,226.354C165.983,226.77 165.838,227.124 165.567,227.415C165.297,227.706 164.944,227.872 164.548,227.893L159.911,228.184V231.345L163.134,231.116C163.55,231.095 163.883,231.199 164.153,231.47C164.424,231.74 164.548,232.073 164.548,232.468C164.548,232.863 164.403,233.216 164.153,233.508ZM160.911,230.271L163.074,230.118L163.084,230.117C163.72,230.086 164.35,230.252 164.86,230.763C165.339,231.241 165.548,231.838 165.548,232.468C165.548,233.124 165.303,233.703 164.913,234.158L164.9,234.173L164.886,234.188C164.45,234.658 163.88,234.947 163.196,234.984L160.911,235.146V237.459C160.911,238.132 160.667,238.727 160.228,239.2C159.778,239.685 159.178,239.963 158.506,239.996C157.865,240.028 157.273,239.859 156.765,239.424L156.751,239.412L156.738,239.399C156.248,238.948 156,238.342 156,237.667V226.957C156,226.293 156.268,225.736 156.66,225.283C157.091,224.786 157.689,224.458 158.395,224.42L164.488,224.004L164.496,224.004C165.129,223.971 165.736,224.148 166.248,224.623L166.261,224.636L166.275,224.649C166.726,225.1 166.983,225.685 166.983,226.354C166.983,227.028 166.739,227.623 166.3,228.095C165.856,228.574 165.261,228.855 164.607,228.891L160.911,229.123V230.271Z" stroke-opacity="0.9" fill-rule="evenodd" fill-opacity="0.9" id="path_5"/>
  <path fill="#EB5757" d="M140.153,82.508C139.883,82.799 139.55,82.965 139.134,82.986L135.911,83.215V86.459C135.911,86.874 135.766,87.228 135.495,87.519C135.225,87.81 134.872,87.977 134.456,87.997C134.04,88.018 133.707,87.914 133.416,87.665C133.146,87.415 133,87.082 133,86.666V75.957C133,75.583 133.146,75.25 133.416,74.938C133.686,74.626 134.04,74.439 134.456,74.418L140.548,74.003C140.944,73.982 141.276,74.086 141.567,74.356C141.838,74.626 141.983,74.959 141.983,75.354C141.983,75.77 141.838,76.124 141.567,76.415C141.297,76.706 140.944,76.872 140.548,76.893L135.911,77.184V80.345L139.134,80.116C139.55,80.095 139.883,80.199 140.153,80.47C140.424,80.74 140.548,81.073 140.548,81.468C140.548,81.863 140.403,82.216 140.153,82.508ZM136.911,79.271L139.074,79.118L139.084,79.117C139.72,79.086 140.35,79.252 140.86,79.763C141.339,80.241 141.548,80.838 141.548,81.468C141.548,82.124 141.303,82.703 140.913,83.158L140.9,83.173L140.886,83.188C140.45,83.658 139.88,83.947 139.196,83.984L136.911,84.146V86.459C136.911,87.132 136.667,87.727 136.228,88.2C135.778,88.685 135.178,88.963 134.506,88.996C133.865,89.028 133.273,88.859 132.765,88.424L132.751,88.412L132.738,88.399C132.248,87.948 132,87.342 132,86.666V75.957C132,75.293 132.268,74.736 132.66,74.283C133.091,73.786 133.689,73.458 134.395,73.42L140.488,73.004L140.496,73.004C141.129,72.971 141.736,73.148 142.248,73.623L142.261,73.636L142.275,73.649C142.726,74.1 142.983,74.685 142.983,75.354C142.983,76.028 142.739,76.623 142.3,77.095C141.856,77.574 141.261,77.855 140.607,77.891L136.911,78.123V79.271Z" stroke-opacity="0.9" fill-rule="evenodd" fill-opacity="0.9" id="path_6"/>
  <path fill="#EB5757" d="M142.193,263.528L142.756,278.24L155.215,270.397L142.193,263.528ZM143.259,265.221L143.689,276.471L153.217,270.473L143.259,265.221Z" stroke-opacity="0.9" fill-rule="evenodd" fill-opacity="0.9" id="path_7"/>
  <path fill="#EB5757" d="M239.881,136.509C236.963,136.251 233.899,136.336 230.716,136.867C230.444,136.913 230.186,136.729 230.141,136.456C230.095,136.184 230.279,135.926 230.552,135.881C233.821,135.335 236.97,135.248 239.969,135.513C240.244,135.537 240.447,135.78 240.423,136.055C240.398,136.33 240.156,136.533 239.881,136.509ZM248.544,137.802C248.634,137.54 248.918,137.402 249.179,137.491C252.292,138.562 255.146,139.964 257.691,141.52C257.927,141.664 258.001,141.972 257.857,142.207C257.713,142.443 257.405,142.517 257.17,142.373C254.679,140.851 251.891,139.482 248.854,138.437C248.593,138.347 248.454,138.063 248.544,137.802ZM222.165,138.788C222.271,139.042 222.151,139.335 221.897,139.442C220.526,140.016 219.139,140.68 217.738,141.439C216.32,142.209 214.969,143.033 213.68,143.906C213.451,144.061 213.14,144.001 212.986,143.772C212.831,143.543 212.891,143.232 213.119,143.078C214.435,142.187 215.813,141.346 217.262,140.56C218.691,139.785 220.108,139.107 221.51,138.52C221.765,138.413 222.058,138.533 222.165,138.788ZM61.727,147.69C58.271,147.385 54.855,147.361 51.497,147.664C51.222,147.689 50.979,147.486 50.954,147.211C50.929,146.936 51.132,146.693 51.407,146.668C54.83,146.359 58.307,146.384 61.815,146.694C62.09,146.718 62.293,146.961 62.269,147.236C62.245,147.511 62.002,147.714 61.727,147.69ZM264.463,147.248C264.652,147.048 264.969,147.039 265.169,147.229C266.428,148.422 267.508,149.595 268.389,150.686C268.562,150.901 268.529,151.215 268.314,151.389C268.099,151.562 267.785,151.529 267.611,151.314C266.76,150.26 265.711,149.12 264.482,147.955C264.281,147.765 264.273,147.449 264.463,147.248ZM71.48,148.724C71.542,148.455 71.81,148.287 72.08,148.348C75.401,149.109 78.735,150.077 82.063,151.212C82.324,151.301 82.464,151.585 82.375,151.846C82.285,152.108 82.001,152.247 81.74,152.158C78.44,151.033 75.14,150.075 71.856,149.323C71.587,149.261 71.419,148.993 71.48,148.724ZM41.81,149.016C41.893,149.28 41.747,149.56 41.483,149.643C39.87,150.152 38.276,150.754 36.704,151.456C36.452,151.569 36.156,151.456 36.043,151.204C35.931,150.952 36.044,150.656 36.296,150.543C37.904,149.825 39.534,149.209 41.183,148.69C41.446,148.607 41.727,148.753 41.81,149.016ZM206.375,149.226C206.569,149.422 206.568,149.739 206.372,149.933C204.084,152.197 202.036,154.62 200.172,157.129C200.007,157.35 199.694,157.396 199.472,157.232C199.251,157.067 199.204,156.754 199.369,156.532C201.258,153.989 203.339,151.527 205.668,149.222C205.864,149.028 206.181,149.03 206.375,149.226ZM91.082,155.218C91.192,154.965 91.486,154.847 91.739,154.957C94.894,156.314 98.031,157.788 101.134,159.345C101.381,159.469 101.48,159.769 101.356,160.016C101.233,160.263 100.932,160.362 100.685,160.239C97.597,158.69 94.479,157.224 91.344,155.875C91.09,155.766 90.973,155.472 91.082,155.218ZM109.606,164.396C109.741,164.155 110.045,164.069 110.286,164.203C113.325,165.898 116.316,167.642 119.245,169.399C119.481,169.541 119.558,169.848 119.416,170.085C119.274,170.322 118.967,170.399 118.73,170.257C115.809,168.504 112.827,166.765 109.799,165.076C109.558,164.942 109.472,164.637 109.606,164.396ZM194.757,164.402C194.994,164.543 195.073,164.849 194.933,165.087C193.273,167.896 191.761,170.717 190.328,173.462C190.2,173.707 189.898,173.802 189.653,173.674C189.409,173.546 189.314,173.244 189.442,172.999C190.878,170.249 192.398,167.41 194.072,164.578C194.212,164.34 194.519,164.262 194.757,164.402ZM127.372,174.98C127.518,174.747 127.827,174.676 128.061,174.823C131.029,176.686 133.909,178.525 136.684,180.295L136.797,180.368C137.03,180.517 137.098,180.826 136.95,181.058C136.801,181.291 136.492,181.36 136.259,181.211L136.149,181.141C133.374,179.369 130.495,177.532 127.529,175.67C127.295,175.523 127.225,175.214 127.372,174.98ZM185.677,181.282C185.919,181.414 186.009,181.717 185.877,181.96C184.218,185.009 182.557,187.801 180.766,190.149C180.598,190.368 180.284,190.41 180.065,190.243C179.845,190.075 179.803,189.761 179.971,189.542C181.715,187.256 183.347,184.516 184.999,181.482C185.131,181.239 185.434,181.15 185.677,181.282ZM144.839,186.058C144.985,185.824 145.294,185.752 145.528,185.898C148.693,187.87 151.656,189.659 154.385,191.184C154.627,191.319 154.713,191.623 154.578,191.865C154.443,192.106 154.139,192.192 153.898,192.057C151.149,190.521 148.17,188.722 144.999,186.747C144.765,186.601 144.693,186.292 144.839,186.058ZM173.617,195.79C173.726,196.044 173.609,196.338 173.355,196.447C171.868,197.088 170.264,197.454 168.513,197.5C167.011,197.539 165.266,197.178 163.323,196.513C163.062,196.423 162.922,196.139 163.012,195.878C163.101,195.616 163.386,195.477 163.647,195.567C165.535,196.213 167.152,196.535 168.487,196.5C170.111,196.457 171.589,196.119 172.96,195.529C173.213,195.419 173.507,195.536 173.617,195.79Z" stroke-opacity="0.9" fill-rule="evenodd" fill-opacity="0.9" id="path_8"/>
  <path fill="#EB5757" d="M80.5,128C82.985,128 85,125.985 85,123.5C85,121.015 82.985,119 80.5,119C78.015,119 76,121.015 76,123.5C76,125.985 78.015,128 80.5,128ZM80.5,129C83.538,129 86,126.538 86,123.5C86,120.462 83.538,118 80.5,118C77.462,118 75,120.462 75,123.5C75,126.538 77.462,129 80.5,129Z" stroke-opacity="0.9" fill-rule="evenodd" fill-opacity="0.9" id="path_9"/>
  <path fill="#EB5757" d="M125,248C126.105,248 127,247.105 127,246C127,244.895 126.105,244 125,244C123.895,244 123,244.895 123,246C123,247.105 123.895,248 125,248ZM125,249C126.657,249 128,247.657 128,246C128,244.343 126.657,243 125,243C123.343,243 122,244.343 122,246C122,247.657 123.343,249 125,249Z" stroke-opacity="0.9" fill-rule="evenodd" fill-opacity="0.9" id="path_10"/>
  <path fill="#EB5757" d="M141,43C142.105,43 143,42.105 143,41C143,39.895 142.105,39 141,39C139.895,39 139,39.895 139,41C139,42.105 139.895,43 141,43ZM141,44C142.657,44 144,42.657 144,41C144,39.343 142.657,38 141,38C139.343,38 138,39.343 138,41C138,42.657 139.343,44 141,44Z" stroke-opacity="0.9" fill-rule="evenodd" fill-opacity="0.9" id="path_11"/>
</svg>